{"item_id":1,"order_id":936,"product_id":511,"qty":7,"promotion_id":4,"cost":"707.91"}
{"item_id":2,"order_id":17,"product_id":631,"qty":8,"promotion_id":566,"cost":"9447.12"}
{"item_id":3,"order_id":232,"product_id":789,"qty":2,"promotion_id":545,"cost":"4134.65"}
{"item_id":4,"order_id":586,"product_id":559,"qty":9,"promotion_id":318,"cost":"7126.72"}
{"item_id":5,"order_id":536,"product_id":826,"qty":8,"promotion_id":604,"cost":"864.12"}
{"item_id":6,"order_id":426,"product_id":280,"qty":2,"promotion_id":410,"cost":"6876.37"}
{"item_id":7,"order_id":744,"product_id":331,"qty":8,"promotion_id":247,"cost":"6869.39"}
{"item_id":8,"order_id":467,"product_id":420,"qty":2,"promotion_id":733,"cost":"3736.16"}
{"item_id":9,"order_id":546,"product_id":511,"qty":7,"promotion_id":651,"cost":"7394.51"}
{"item_id":10,"order_id":758,"product_id":784,"qty":10,"promotion_id":50,"cost":"2318.73"}
{"item_id":11,"order_id":230,"product_id":969,"qty":1,"promotion_id":72,"cost":"6587.40"}
{"item_id":12,"order_id":368,"product_id":858,"qty":10,"promotion_id":805,"cost":"1780.23"}
{"item_id":13,"order_id":896,"product_id":434,"qty":5,"promotion_id":964,"cost":"8394.44"}
{"item_id":14,"order_id":139,"product_id":307,"qty":8,"promotion_id":730,"cost":"6177.76"}
{"item_id":15,"order_id":618,"product_id":46,"qty":7,"promotion_id":74,"cost":"2026.39"}
{"item_id":16,"order_id":919,"product_id":270,"qty":3,"promotion_id":587,"cost":"9049.00"}
{"item_id":17,"order_id":171,"product_id":62,"qty":3,"promotion_id":920,"cost":"5780.90"}
{"item_id":18,"order_id":663,"product_id":532,"qty":1,"promotion_id":750,"cost":"4844.67"}
{"item_id":19,"order_id":291,"product_id":220,"qty":5,"promotion_id":389,"cost":"9156.78"}
{"item_id":20,"order_id":664,"product_id":262,"qty":6,"promotion_id":926,"cost":"9481.10"}
{"item_id":21,"order_id":330,"product_id":855,"qty":3,"promotion_id":691,"cost":"8052.59"}
{"item_id":22,"order_id":752,"product_id":597,"qty":8,"promotion_id":497,"cost":"8148.84"}
{"item_id":23,"order_id":103,"product_id":527,"qty":2,"promotion_id":76,"cost":"2462.03"}
{"item_id":24,"order_id":337,"product_id":615,"qty":10,"promotion_id":974,"cost":"9214.12"}
{"item_id":25,"order_id":297,"product_id":154,"qty":1,"promotion_id":251,"cost":"4940.11"}
{"item_id":26,"order_id":618,"product_id":92,"qty":4,"promotion_id":925,"cost":"1148.83"}
{"item_id":27,"order_id":791,"product_id":966,"qty":2,"promotion_id":451,"cost":"3285.93"}
{"item_id":28,"order_id":131,"product_id":422,"qty":1,"promotion_id":311,"cost":"2548.51"}
{"item_id":29,"order_id":121,"product_id":90,"qty":10,"promotion_id":86,"cost":"1951.18"}
{"item_id":30,"order_id":671,"product_id":272,"qty":4,"promotion_id":286,"cost":"597.54"}
{"item_id":31,"order_id":821,"product_id":253,"qty":10,"promotion_id":43,"cost":"9008.49"}
{"item_id":32,"order_id":262,"product_id":81,"qty":5,"promotion_id":834,"cost":"8433.96"}
{"item_id":33,"order_id":826,"product_id":936,"qty":6,"promotion_id":964,"cost":"7415.90"}
{"item_id":34,"order_id":8,"product_id":375,"qty":10,"promotion_id":949,"cost":"1303.35"}
{"item_id":35,"order_id":448,"product_id":545,"qty":5,"promotion_id":245,"cost":"1083.78"}
{"item_id":36,"order_id":525,"product_id":386,"qty":7,"promotion_id":992,"cost":"9100.92"}
{"item_id":37,"order_id":771,"product_id":727,"qty":8,"promotion_id":480,"cost":"7016.05"}
{"item_id":38,"order_id":495,"product_id":191,"qty":1,"promotion_id":537,"cost":"468.34"}
{"item_id":39,"order_id":62,"product_id":943,"qty":10,"promotion_id":648,"cost":"568.59"}
{"item_id":40,"order_id":700,"product_id":40,"qty":8,"promotion_id":135,"cost":"3944.67"}
{"item_id":41,"order_id":40,"product_id":85,"qty":2,"promotion_id":30,"cost":"5178.16"}
{"item_id":42,"order_id":794,"product_id":388,"qty":3,"promotion_id":927,"cost":"958.72"}
{"item_id":43,"order_id":5,"product_id":99,"qty":8,"promotion_id":927,"cost":"6080.09"}
{"item_id":44,"order_id":724,"product_id":761,"qty":5,"promotion_id":861,"cost":"5864.37"}
{"item_id":45,"order_id":541,"product_id":170,"qty":10,"promotion_id":183,"cost":"4907.99"}
{"item_id":46,"order_id":624,"product_id":38,"qty":10,"promotion_id":585,"cost":"3991.53"}
{"item_id":47,"order_id":907,"product_id":887,"qty":1,"promotion_id":461,"cost":"5935.05"}
{"item_id":48,"order_id":47,"product_id":703,"qty":1,"promotion_id":844,"cost":"6265.27"}
{"item_id":49,"order_id":986,"product_id":454,"qty":1,"promotion_id":69,"cost":"9232.78"}
{"item_id":50,"order_id":254,"product_id":534,"qty":10,"promotion_id":533,"cost":"2819.45"}
{"item_id":51,"order_id":29,"product_id":338,"qty":4,"promotion_id":731,"cost":"1246.47"}
{"item_id":52,"order_id":148,"product_id":731,"qty":10,"promotion_id":883,"cost":"6037.35"}
{"item_id":53,"order_id":671,"product_id":789,"qty":6,"promotion_id":880,"cost":"8231.83"}
{"item_id":54,"order_id":277,"product_id":632,"qty":1,"promotion_id":500,"cost":"9823.50"}
{"item_id":55,"order_id":67,"product_id":256,"qty":6,"promotion_id":887,"cost":"2257.05"}
{"item_id":56,"order_id":88,"product_id":952,"qty":4,"promotion_id":855,"cost":"1494.30"}
{"item_id":57,"order_id":476,"product_id":613,"qty":2,"promotion_id":328,"cost":"2031.96"}
{"item_id":58,"order_id":154,"product_id":623,"qty":5,"promotion_id":676,"cost":"8078.67"}
{"item_id":59,"order_id":832,"product_id":273,"qty":4,"promotion_id":654,"cost":"3971.99"}
{"item_id":60,"order_id":747,"product_id":304,"qty":6,"promotion_id":851,"cost":"4344.69"}
{"item_id":61,"order_id":367,"product_id":519,"qty":5,"promotion_id":317,"cost":"5982.33"}
{"item_id":62,"order_id":89,"product_id":24,"qty":10,"promotion_id":793,"cost":"9874.28"}
{"item_id":63,"order_id":353,"product_id":884,"qty":1,"promotion_id":370,"cost":"5085.11"}
{"item_id":64,"order_id":786,"product_id":326,"qty":1,"promotion_id":877,"cost":"8124.78"}
{"item_id":65,"order_id":933,"product_id":774,"qty":8,"promotion_id":601,"cost":"8504.84"}
{"item_id":66,"order_id":4,"product_id":357,"qty":4,"promotion_id":197,"cost":"1973.94"}
{"item_id":67,"order_id":654,"product_id":74,"qty":9,"promotion_id":154,"cost":"3967.25"}
{"item_id":68,"order_id":814,"product_id":527,"qty":1,"promotion_id":803,"cost":"2778.49"}
{"item_id":69,"order_id":275,"product_id":716,"qty":9,"promotion_id":5,"cost":"1637.18"}
{"item_id":70,"order_id":361,"product_id":116,"qty":4,"promotion_id":782,"cost":"3057.04"}
{"item_id":71,"order_id":421,"product_id":88,"qty":8,"promotion_id":680,"cost":"8494.26"}
{"item_id":72,"order_id":331,"product_id":811,"qty":4,"promotion_id":363,"cost":"8316.70"}
{"item_id":73,"order_id":700,"product_id":276,"qty":8,"promotion_id":215,"cost":"41.10"}
{"item_id":74,"order_id":962,"product_id":197,"qty":2,"promotion_id":769,"cost":"2080.78"}
{"item_id":75,"order_id":231,"product_id":307,"qty":4,"promotion_id":357,"cost":"7412.83"}
{"item_id":76,"order_id":632,"product_id":774,"qty":7,"promotion_id":622,"cost":"519.92"}
{"item_id":77,"order_id":162,"product_id":491,"qty":3,"promotion_id":265,"cost":"1511.68"}
{"item_id":78,"order_id":441,"product_id":668,"qty":2,"promotion_id":564,"cost":"4326.15"}
{"item_id":79,"order_id":775,"product_id":297,"qty":10,"promotion_id":371,"cost":"3311.03"}
{"item_id":80,"order_id":1,"product_id":167,"qty":3,"promotion_id":153,"cost":"2921.92"}
{"item_id":81,"order_id":520,"product_id":15,"qty":4,"promotion_id":653,"cost":"4763.81"}
{"item_id":82,"order_id":589,"product_id":393,"qty":5,"promotion_id":316,"cost":"670.18"}
{"item_id":83,"order_id":472,"product_id":206,"qty":4,"promotion_id":864,"cost":"7633.53"}
{"item_id":84,"order_id":160,"product_id":428,"qty":9,"promotion_id":338,"cost":"827.12"}
{"item_id":85,"order_id":351,"product_id":86,"qty":6,"promotion_id":623,"cost":"700.80"}
{"item_id":86,"order_id":879,"product_id":530,"qty":1,"promotion_id":462,"cost":"2484.33"}
{"item_id":87,"order_id":293,"product_id":851,"qty":2,"promotion_id":988,"cost":"3621.67"}
{"item_id":88,"order_id":283,"product_id":334,"qty":4,"promotion_id":770,"cost":"4781.94"}
{"item_id":89,"order_id":511,"product_id":213,"qty":7,"promotion_id":965,"cost":"9293.29"}
{"item_id":90,"order_id":38,"product_id":540,"qty":2,"promotion_id":229,"cost":"4597.73"}
{"item_id":91,"order_id":366,"product_id":840,"qty":2,"promotion_id":113,"cost":"3078.40"}
{"item_id":92,"order_id":238,"product_id":345,"qty":9,"promotion_id":603,"cost":"1546.45"}
{"item_id":93,"order_id":724,"product_id":582,"qty":9,"promotion_id":586,"cost":"5211.68"}
{"item_id":94,"order_id":320,"product_id":347,"qty":3,"promotion_id":708,"cost":"9522.39"}
{"item_id":95,"order_id":711,"product_id":981,"qty":7,"promotion_id":269,"cost":"4293.59"}
{"item_id":96,"order_id":28,"product_id":976,"qty":6,"promotion_id":19,"cost":"5286.58"}
{"item_id":97,"order_id":528,"product_id":864,"qty":2,"promotion_id":341,"cost":"2999.23"}
{"item_id":98,"order_id":960,"product_id":260,"qty":8,"promotion_id":424,"cost":"899.49"}
{"item_id":99,"order_id":228,"product_id":986,"qty":5,"promotion_id":467,"cost":"8170.17"}
{"item_id":100,"order_id":871,"product_id":715,"qty":3,"promotion_id":735,"cost":"4920.63"}
{"item_id":101,"order_id":451,"product_id":738,"qty":1,"promotion_id":897,"cost":"1746.93"}
{"item_id":102,"order_id":193,"product_id":492,"qty":1,"promotion_id":92,"cost":"6991.87"}
{"item_id":103,"order_id":941,"product_id":360,"qty":9,"promotion_id":490,"cost":"1253.10"}
{"item_id":104,"order_id":889,"product_id":877,"qty":8,"promotion_id":199,"cost":"9045.95"}
{"item_id":105,"order_id":408,"product_id":688,"qty":3,"promotion_id":477,"cost":"2157.45"}
{"item_id":106,"order_id":512,"product_id":870,"qty":4,"promotion_id":134,"cost":"9697.94"}
{"item_id":107,"order_id":948,"product_id":591,"qty":3,"promotion_id":165,"cost":"4930.13"}
{"item_id":108,"order_id":406,"product_id":247,"qty":6,"promotion_id":967,"cost":"9463.05"}
{"item_id":109,"order_id":759,"product_id":73,"qty":4,"promotion_id":414,"cost":"2511.83"}
{"item_id":110,"order_id":14,"product_id":702,"qty":5,"promotion_id":611,"cost":"1809.68"}
{"item_id":111,"order_id":565,"product_id":5,"qty":5,"promotion_id":355,"cost":"7767.13"}
{"item_id":112,"order_id":922,"product_id":264,"qty":7,"promotion_id":296,"cost":"5465.85"}
{"item_id":113,"order_id":976,"product_id":253,"qty":10,"promotion_id":959,"cost":"5621.18"}
{"item_id":114,"order_id":194,"product_id":55,"qty":7,"promotion_id":683,"cost":"2386.84"}
{"item_id":115,"order_id":440,"product_id":726,"qty":6,"promotion_id":565,"cost":"184.69"}
{"item_id":116,"order_id":587,"product_id":483,"qty":3,"promotion_id":518,"cost":"6999.60"}
{"item_id":117,"order_id":886,"product_id":324,"qty":10,"promotion_id":800,"cost":"3444.68"}
{"item_id":118,"order_id":485,"product_id":270,"qty":5,"promotion_id":107,"cost":"9426.64"}
{"item_id":119,"order_id":581,"product_id":822,"qty":6,"promotion_id":270,"cost":"7634.85"}
{"item_id":120,"order_id":644,"product_id":555,"qty":3,"promotion_id":900,"cost":"697.44"}
{"item_id":121,"order_id":560,"product_id":775,"qty":4,"promotion_id":50,"cost":"1821.05"}
{"item_id":122,"order_id":707,"product_id":649,"qty":9,"promotion_id":949,"cost":"6584.00"}
{"item_id":123,"order_id":253,"product_id":787,"qty":2,"promotion_id":512,"cost":"1613.51"}
{"item_id":124,"order_id":916,"product_id":872,"qty":5,"promotion_id":835,"cost":"3301.27"}
{"item_id":125,"order_id":82,"product_id":911,"qty":10,"promotion_id":882,"cost":"8626.82"}
{"item_id":126,"order_id":120,"product_id":746,"qty":8,"promotion_id":221,"cost":"6021.47"}
{"item_id":127,"order_id":103,"product_id":408,"qty":10,"promotion_id":600,"cost":"3847.55"}
{"item_id":128,"order_id":549,"product_id":50,"qty":1,"promotion_id":746,"cost":"7225.53"}
{"item_id":129,"order_id":248,"product_id":637,"qty":1,"promotion_id":759,"cost":"1423.10"}
{"item_id":130,"order_id":651,"product_id":477,"qty":4,"promotion_id":413,"cost":"982.96"}
{"item_id":131,"order_id":976,"product_id":503,"qty":10,"promotion_id":393,"cost":"4934.19"}
{"item_id":132,"order_id":7,"product_id":680,"qty":10,"promotion_id":323,"cost":"6702.97"}
{"item_id":133,"order_id":925,"product_id":706,"qty":2,"promotion_id":306,"cost":"2866.48"}
{"item_id":134,"order_id":898,"product_id":790,"qty":6,"promotion_id":804,"cost":"4845.21"}
{"item_id":135,"order_id":640,"product_id":924,"qty":4,"promotion_id":616,"cost":"2970.50"}
{"item_id":136,"order_id":815,"product_id":278,"qty":1,"promotion_id":954,"cost":"9728.91"}
{"item_id":137,"order_id":360,"product_id":633,"qty":8,"promotion_id":449,"cost":"4648.35"}
{"item_id":138,"order_id":949,"product_id":290,"qty":9,"promotion_id":916,"cost":"5257.35"}
{"item_id":139,"order_id":664,"product_id":74,"qty":10,"promotion_id":10,"cost":"7616.22"}
{"item_id":140,"order_id":487,"product_id":613,"qty":9,"promotion_id":691,"cost":"4565.76"}
{"item_id":141,"order_id":669,"product_id":772,"qty":1,"promotion_id":984,"cost":"8086.35"}
{"item_id":142,"order_id":221,"product_id":466,"qty":5,"promotion_id":423,"cost":"9451.40"}
{"item_id":143,"order_id":11,"product_id":800,"qty":6,"promotion_id":901,"cost":"4455.94"}
{"item_id":144,"order_id":438,"product_id":433,"qty":6,"promotion_id":848,"cost":"2812.74"}
{"item_id":145,"order_id":761,"product_id":359,"qty":9,"promotion_id":254,"cost":"1931.97"}
{"item_id":146,"order_id":918,"product_id":556,"qty":5,"promotion_id":444,"cost":"7209.75"}
{"item_id":147,"order_id":332,"product_id":389,"qty":4,"promotion_id":795,"cost":"3653.67"}
{"item_id":148,"order_id":740,"product_id":220,"qty":5,"promotion_id":504,"cost":"4721.70"}
{"item_id":149,"order_id":682,"product_id":269,"qty":8,"promotion_id":246,"cost":"3240.17"}
{"item_id":150,"order_id":405,"product_id":674,"qty":3,"promotion_id":837,"cost":"4366.15"}
{"item_id":151,"order_id":360,"product_id":177,"qty":8,"promotion_id":972,"cost":"4029.18"}
{"item_id":152,"order_id":111,"product_id":237,"qty":10,"promotion_id":361,"cost":"8908.05"}
{"item_id":153,"order_id":466,"product_id":570,"qty":3,"promotion_id":935,"cost":"4143.79"}
{"item_id":154,"order_id":26,"product_id":82,"qty":2,"promotion_id":785,"cost":"7067.43"}
{"item_id":155,"order_id":638,"product_id":804,"qty":2,"promotion_id":326,"cost":"2183.66"}
{"item_id":156,"order_id":181,"product_id":179,"qty":6,"promotion_id":989,"cost":"6045.53"}
{"item_id":157,"order_id":411,"product_id":369,"qty":3,"promotion_id":700,"cost":"7951.72"}
{"item_id":158,"order_id":296,"product_id":669,"qty":6,"promotion_id":742,"cost":"7325.69"}
{"item_id":159,"order_id":193,"product_id":631,"qty":2,"promotion_id":787,"cost":"6249.84"}
{"item_id":160,"order_id":634,"product_id":268,"qty":6,"promotion_id":418,"cost":"5038.45"}
{"item_id":161,"order_id":116,"product_id":292,"qty":1,"promotion_id":269,"cost":"5925.79"}
{"item_id":162,"order_id":717,"product_id":537,"qty":6,"promotion_id":556,"cost":"1075.37"}
{"item_id":163,"order_id":951,"product_id":275,"qty":8,"promotion_id":778,"cost":"6047.57"}
{"item_id":164,"order_id":517,"product_id":230,"qty":10,"promotion_id":560,"cost":"9740.23"}
{"item_id":165,"order_id":630,"product_id":983,"qty":8,"promotion_id":122,"cost":"5827.02"}
{"item_id":166,"order_id":319,"product_id":325,"qty":8,"promotion_id":962,"cost":"7981.07"}
{"item_id":167,"order_id":342,"product_id":690,"qty":9,"promotion_id":117,"cost":"1618.00"}
{"item_id":168,"order_id":920,"product_id":884,"qty":1,"promotion_id":990,"cost":"5383.42"}
{"item_id":169,"order_id":976,"product_id":78,"qty":9,"promotion_id":287,"cost":"2716.40"}
{"item_id":170,"order_id":741,"product_id":438,"qty":1,"promotion_id":192,"cost":"1966.24"}
{"item_id":171,"order_id":973,"product_id":164,"qty":7,"promotion_id":950,"cost":"5044.83"}
{"item_id":172,"order_id":121,"product_id":714,"qty":9,"promotion_id":443,"cost":"622.31"}
{"item_id":173,"order_id":20,"product_id":654,"qty":2,"promotion_id":426,"cost":"6758.72"}
{"item_id":174,"order_id":202,"product_id":164,"qty":1,"promotion_id":379,"cost":"917.46"}
{"item_id":175,"order_id":20,"product_id":144,"qty":3,"promotion_id":319,"cost":"7285.37"}
{"item_id":176,"order_id":924,"product_id":802,"qty":2,"promotion_id":570,"cost":"6989.34"}
{"item_id":177,"order_id":723,"product_id":37,"qty":4,"promotion_id":733,"cost":"5893.09"}
{"item_id":178,"order_id":66,"product_id":876,"qty":7,"promotion_id":495,"cost":"6275.92"}
{"item_id":179,"order_id":449,"product_id":274,"qty":6,"promotion_id":661,"cost":"9736.94"}
{"item_id":180,"order_id":325,"product_id":181,"qty":10,"promotion_id":66,"cost":"9526.35"}
{"item_id":181,"order_id":301,"product_id":243,"qty":4,"promotion_id":902,"cost":"6280.06"}
{"item_id":182,"order_id":166,"product_id":615,"qty":3,"promotion_id":750,"cost":"5422.68"}
{"item_id":183,"order_id":642,"product_id":463,"qty":8,"promotion_id":119,"cost":"3777.27"}
{"item_id":184,"order_id":562,"product_id":667,"qty":5,"promotion_id":320,"cost":"8700.50"}
{"item_id":185,"order_id":748,"product_id":631,"qty":1,"promotion_id":847,"cost":"9531.19"}
{"item_id":186,"order_id":692,"product_id":89,"qty":10,"promotion_id":102,"cost":"3562.47"}
{"item_id":187,"order_id":916,"product_id":708,"qty":1,"promotion_id":841,"cost":"8487.04"}
{"item_id":188,"order_id":311,"product_id":759,"qty":5,"promotion_id":860,"cost":"5211.42"}
{"item_id":189,"order_id":89,"product_id":117,"qty":5,"promotion_id":339,"cost":"5485.54"}
{"item_id":190,"order_id":907,"product_id":777,"qty":10,"promotion_id":904,"cost":"5265.52"}
{"item_id":191,"order_id":796,"product_id":964,"qty":2,"promotion_id":413,"cost":"6472.06"}
{"item_id":192,"order_id":82,"product_id":281,"qty":6,"promotion_id":160,"cost":"3508.87"}
{"item_id":193,"order_id":987,"product_id":224,"qty":1,"promotion_id":952,"cost":"8062.25"}
{"item_id":194,"order_id":750,"product_id":261,"qty":3,"promotion_id":988,"cost":"7333.55"}
{"item_id":195,"order_id":196,"product_id":49,"qty":1,"promotion_id":786,"cost":"6211.10"}
{"item_id":196,"order_id":582,"product_id":879,"qty":10,"promotion_id":351,"cost":"7455.75"}
{"item_id":197,"order_id":711,"product_id":978,"qty":3,"promotion_id":163,"cost":"8815.76"}
{"item_id":198,"order_id":891,"product_id":821,"qty":7,"promotion_id":788,"cost":"1739.74"}
{"item_id":199,"order_id":907,"product_id":367,"qty":7,"promotion_id":822,"cost":"1061.67"}
{"item_id":200,"order_id":151,"product_id":416,"qty":5,"promotion_id":803,"cost":"5675.07"}
{"item_id":201,"order_id":287,"product_id":630,"qty":8,"promotion_id":88,"cost":"8505.73"}
{"item_id":202,"order_id":94,"product_id":628,"qty":9,"promotion_id":486,"cost":"5161.15"}
{"item_id":203,"order_id":987,"product_id":353,"qty":10,"promotion_id":969,"cost":"2557.16"}
{"item_id":204,"order_id":224,"product_id":917,"qty":7,"promotion_id":97,"cost":"6071.48"}
{"item_id":205,"order_id":644,"product_id":267,"qty":6,"promotion_id":289,"cost":"2567.55"}
{"item_id":206,"order_id":474,"product_id":293,"qty":9,"promotion_id":258,"cost":"5992.54"}
{"item_id":207,"order_id":52,"product_id":805,"qty":7,"promotion_id":179,"cost":"523.47"}
{"item_id":208,"order_id":527,"product_id":912,"qty":4,"promotion_id":895,"cost":"5469.74"}
{"item_id":209,"order_id":556,"product_id":663,"qty":10,"promotion_id":560,"cost":"6090.63"}
{"item_id":210,"order_id":693,"product_id":442,"qty":5,"promotion_id":332,"cost":"7576.30"}
{"item_id":211,"order_id":467,"product_id":78,"qty":2,"promotion_id":112,"cost":"6799.66"}
{"item_id":212,"order_id":342,"product_id":545,"qty":5,"promotion_id":432,"cost":"420.68"}
{"item_id":213,"order_id":490,"product_id":26,"qty":8,"promotion_id":375,"cost":"9430.12"}
{"item_id":214,"order_id":835,"product_id":763,"qty":10,"promotion_id":47,"cost":"4550.75"}
{"item_id":215,"order_id":258,"product_id":908,"qty":5,"promotion_id":207,"cost":"4723.16"}
{"item_id":216,"order_id":567,"product_id":549,"qty":4,"promotion_id":709,"cost":"2554.56"}
{"item_id":217,"order_id":206,"product_id":322,"qty":2,"promotion_id":743,"cost":"4907.13"}
{"item_id":218,"order_id":797,"product_id":930,"qty":5,"promotion_id":717,"cost":"2787.27"}
{"item_id":219,"order_id":973,"product_id":581,"qty":3,"promotion_id":402,"cost":"1082.59"}
{"item_id":220,"order_id":704,"product_id":993,"qty":7,"promotion_id":672,"cost":"2714.70"}
{"item_id":221,"order_id":113,"product_id":928,"qty":1,"promotion_id":233,"cost":"8776.48"}
{"item_id":222,"order_id":316,"product_id":624,"qty":4,"promotion_id":308,"cost":"3108.34"}
{"item_id":223,"order_id":650,"product_id":657,"qty":6,"promotion_id":390,"cost":"2819.58"}
{"item_id":224,"order_id":308,"product_id":295,"qty":2,"promotion_id":428,"cost":"2509.35"}
{"item_id":225,"order_id":303,"product_id":811,"qty":10,"promotion_id":915,"cost":"4713.66"}
{"item_id":226,"order_id":628,"product_id":953,"qty":5,"promotion_id":631,"cost":"316.10"}
{"item_id":227,"order_id":855,"product_id":764,"qty":8,"promotion_id":843,"cost":"3830.08"}
{"item_id":228,"order_id":839,"product_id":618,"qty":6,"promotion_id":941,"cost":"3554.41"}
{"item_id":229,"order_id":27,"product_id":632,"qty":6,"promotion_id":487,"cost":"3039.87"}
{"item_id":230,"order_id":332,"product_id":327,"qty":6,"promotion_id":46,"cost":"4364.62"}
{"item_id":231,"order_id":429,"product_id":258,"qty":7,"promotion_id":317,"cost":"6619.95"}
{"item_id":232,"order_id":359,"product_id":649,"qty":3,"promotion_id":665,"cost":"4583.49"}
{"item_id":233,"order_id":313,"product_id":147,"qty":10,"promotion_id":729,"cost":"489.80"}
{"item_id":234,"order_id":912,"product_id":63,"qty":4,"promotion_id":308,"cost":"596.19"}
{"item_id":235,"order_id":970,"product_id":554,"qty":8,"promotion_id":109,"cost":"3322.00"}
{"item_id":236,"order_id":745,"product_id":206,"qty":8,"promotion_id":579,"cost":"1351.61"}
{"item_id":237,"order_id":241,"product_id":146,"qty":4,"promotion_id":282,"cost":"26.91"}
{"item_id":238,"order_id":82,"product_id":689,"qty":4,"promotion_id":648,"cost":"3394.03"}
{"item_id":239,"order_id":749,"product_id":523,"qty":8,"promotion_id":920,"cost":"8082.61"}
{"item_id":240,"order_id":771,"product_id":52,"qty":6,"promotion_id":908,"cost":"8554.27"}
{"item_id":241,"order_id":598,"product_id":769,"qty":2,"promotion_id":75,"cost":"9876.13"}
{"item_id":242,"order_id":567,"product_id":19,"qty":6,"promotion_id":399,"cost":"218.37"}
{"item_id":243,"order_id":532,"product_id":666,"qty":3,"promotion_id":276,"cost":"5256.17"}
{"item_id":244,"order_id":377,"product_id":639,"qty":2,"promotion_id":611,"cost":"5648.11"}
{"item_id":245,"order_id":849,"product_id":837,"qty":6,"promotion_id":625,"cost":"3258.05"}
{"item_id":246,"order_id":703,"product_id":561,"qty":9,"promotion_id":28,"cost":"1043.69"}
{"item_id":247,"order_id":959,"product_id":786,"qty":9,"promotion_id":297,"cost":"2960.95"}
{"item_id":248,"order_id":704,"product_id":10,"qty":5,"promotion_id":377,"cost":"7256.06"}
{"item_id":249,"order_id":489,"product_id":440,"qty":3,"promotion_id":553,"cost":"6365.09"}
{"item_id":250,"order_id":42,"product_id":567,"qty":1,"promotion_id":409,"cost":"5912.84"}
{"item_id":251,"order_id":613,"product_id":528,"qty":2,"promotion_id":916,"cost":"6533.17"}
{"item_id":252,"order_id":171,"product_id":380,"qty":2,"promotion_id":983,"cost":"6103.72"}
{"item_id":253,"order_id":336,"product_id":144,"qty":2,"promotion_id":163,"cost":"7856.62"}
{"item_id":254,"order_id":45,"product_id":404,"qty":1,"promotion_id":147,"cost":"1167.40"}
{"item_id":255,"order_id":293,"product_id":374,"qty":5,"promotion_id":870,"cost":"8396.94"}
{"item_id":256,"order_id":804,"product_id":864,"qty":8,"promotion_id":777,"cost":"6963.19"}
{"item_id":257,"order_id":790,"product_id":799,"qty":4,"promotion_id":70,"cost":"2544.62"}
{"item_id":258,"order_id":267,"product_id":384,"qty":2,"promotion_id":769,"cost":"1361.05"}
{"item_id":259,"order_id":575,"product_id":790,"qty":5,"promotion_id":894,"cost":"2616.76"}
{"item_id":260,"order_id":756,"product_id":642,"qty":3,"promotion_id":528,"cost":"8377.21"}
{"item_id":261,"order_id":296,"product_id":533,"qty":1,"promotion_id":73,"cost":"6174.62"}
{"item_id":262,"order_id":936,"product_id":737,"qty":9,"promotion_id":654,"cost":"5628.32"}
{"item_id":263,"order_id":762,"product_id":238,"qty":2,"promotion_id":925,"cost":"9171.73"}
{"item_id":264,"order_id":456,"product_id":174,"qty":4,"promotion_id":566,"cost":"8500.45"}
{"item_id":265,"order_id":91,"product_id":761,"qty":8,"promotion_id":350,"cost":"2100.09"}
{"item_id":266,"order_id":617,"product_id":664,"qty":5,"promotion_id":166,"cost":"1840.81"}
{"item_id":267,"order_id":228,"product_id":592,"qty":10,"promotion_id":973,"cost":"8994.49"}
{"item_id":268,"order_id":632,"product_id":455,"qty":5,"promotion_id":63,"cost":"3094.59"}
{"item_id":269,"order_id":123,"product_id":352,"qty":5,"promotion_id":644,"cost":"1020.87"}
{"item_id":270,"order_id":891,"product_id":275,"qty":2,"promotion_id":454,"cost":"7261.02"}
{"item_id":271,"order_id":602,"product_id":966,"qty":10,"promotion_id":816,"cost":"5342.06"}
{"item_id":272,"order_id":334,"product_id":523,"qty":6,"promotion_id":327,"cost":"2714.01"}
{"item_id":273,"order_id":830,"product_id":627,"qty":1,"promotion_id":110,"cost":"3617.03"}
{"item_id":274,"order_id":9,"product_id":781,"qty":3,"promotion_id":518,"cost":"6726.86"}
{"item_id":275,"order_id":773,"product_id":774,"qty":5,"promotion_id":882,"cost":"9482.37"}
{"item_id":276,"order_id":538,"product_id":340,"qty":1,"promotion_id":996,"cost":"9724.52"}
{"item_id":277,"order_id":352,"product_id":601,"qty":6,"promotion_id":726,"cost":"9308.08"}
{"item_id":278,"order_id":848,"product_id":535,"qty":3,"promotion_id":859,"cost":"7742.05"}
{"item_id":279,"order_id":768,"product_id":960,"qty":5,"promotion_id":887,"cost":"4805.17"}
{"item_id":280,"order_id":22,"product_id":178,"qty":1,"promotion_id":198,"cost":"6748.40"}
{"item_id":281,"order_id":194,"product_id":88,"qty":2,"promotion_id":99,"cost":"2148.24"}
{"item_id":282,"order_id":353,"product_id":238,"qty":6,"promotion_id":201,"cost":"7517.81"}
{"item_id":283,"order_id":852,"product_id":890,"qty":10,"promotion_id":13,"cost":"2000.35"}
{"item_id":284,"order_id":47,"product_id":896,"qty":9,"promotion_id":126,"cost":"7593.87"}
{"item_id":285,"order_id":572,"product_id":733,"qty":5,"promotion_id":56,"cost":"1594.67"}
{"item_id":286,"order_id":793,"product_id":85,"qty":8,"promotion_id":954,"cost":"122.92"}
{"item_id":287,"order_id":267,"product_id":870,"qty":9,"promotion_id":417,"cost":"8972.49"}
{"item_id":288,"order_id":638,"product_id":632,"qty":9,"promotion_id":571,"cost":"5709.83"}
{"item_id":289,"order_id":733,"product_id":847,"qty":4,"promotion_id":504,"cost":"3865.52"}
{"item_id":290,"order_id":141,"product_id":388,"qty":3,"promotion_id":471,"cost":"6092.24"}
{"item_id":291,"order_id":578,"product_id":430,"qty":7,"promotion_id":36,"cost":"6150.99"}
{"item_id":292,"order_id":835,"product_id":529,"qty":1,"promotion_id":130,"cost":"966.69"}
{"item_id":293,"order_id":633,"product_id":610,"qty":5,"promotion_id":868,"cost":"1768.96"}
{"item_id":294,"order_id":591,"product_id":517,"qty":10,"promotion_id":595,"cost":"5962.57"}
{"item_id":295,"order_id":155,"product_id":122,"qty":1,"promotion_id":799,"cost":"8708.39"}
{"item_id":296,"order_id":197,"product_id":243,"qty":9,"promotion_id":962,"cost":"8640.23"}
{"item_id":297,"order_id":763,"product_id":399,"qty":2,"promotion_id":822,"cost":"9144.98"}
{"item_id":298,"order_id":706,"product_id":307,"qty":7,"promotion_id":736,"cost":"6423.12"}
{"item_id":299,"order_id":222,"product_id":158,"qty":5,"promotion_id":808,"cost":"7154.35"}
{"item_id":300,"order_id":930,"product_id":715,"qty":3,"promotion_id":697,"cost":"7133.84"}
{"item_id":301,"order_id":43,"product_id":982,"qty":2,"promotion_id":90,"cost":"1580.93"}
{"item_id":302,"order_id":646,"product_id":925,"qty":4,"promotion_id":749,"cost":"2741.82"}
{"item_id":303,"order_id":392,"product_id":274,"qty":5,"promotion_id":664,"cost":"2707.22"}
{"item_id":304,"order_id":434,"product_id":669,"qty":2,"promotion_id":511,"cost":"8210.07"}
{"item_id":305,"order_id":973,"product_id":677,"qty":4,"promotion_id":136,"cost":"1003.63"}
{"item_id":306,"order_id":987,"product_id":899,"qty":3,"promotion_id":488,"cost":"460.58"}
{"item_id":307,"order_id":331,"product_id":619,"qty":10,"promotion_id":400,"cost":"370.79"}
{"item_id":308,"order_id":238,"product_id":274,"qty":2,"promotion_id":703,"cost":"238.37"}
{"item_id":309,"order_id":257,"product_id":338,"qty":3,"promotion_id":324,"cost":"9510.97"}
{"item_id":310,"order_id":743,"product_id":960,"qty":5,"promotion_id":792,"cost":"3303.42"}
{"item_id":311,"order_id":958,"product_id":211,"qty":9,"promotion_id":125,"cost":"2482.46"}
{"item_id":312,"order_id":170,"product_id":396,"qty":9,"promotion_id":863,"cost":"5700.67"}
{"item_id":313,"order_id":805,"product_id":951,"qty":8,"promotion_id":629,"cost":"1733.92"}
{"item_id":314,"order_id":812,"product_id":26,"qty":4,"promotion_id":330,"cost":"9275.14"}
{"item_id":315,"order_id":809,"product_id":646,"qty":8,"promotion_id":531,"cost":"2203.58"}
{"item_id":316,"order_id":539,"product_id":457,"qty":10,"promotion_id":685,"cost":"1843.00"}
{"item_id":317,"order_id":947,"product_id":12,"qty":3,"promotion_id":861,"cost":"4957.11"}
{"item_id":318,"order_id":231,"product_id":383,"qty":8,"promotion_id":512,"cost":"1468.25"}
{"item_id":319,"order_id":288,"product_id":426,"qty":3,"promotion_id":753,"cost":"901.64"}
{"item_id":320,"order_id":883,"product_id":894,"qty":8,"promotion_id":897,"cost":"4802.13"}
{"item_id":321,"order_id":397,"product_id":744,"qty":7,"promotion_id":486,"cost":"2476.83"}
{"item_id":322,"order_id":469,"product_id":709,"qty":6,"promotion_id":298,"cost":"3999.73"}
{"item_id":323,"order_id":411,"product_id":113,"qty":6,"promotion_id":915,"cost":"2216.82"}
{"item_id":324,"order_id":249,"product_id":264,"qty":2,"promotion_id":477,"cost":"8537.80"}
{"item_id":325,"order_id":511,"product_id":286,"qty":2,"promotion_id":38,"cost":"2264.31"}
{"item_id":326,"order_id":965,"product_id":939,"qty":6,"promotion_id":917,"cost":"5234.13"}
{"item_id":327,"order_id":633,"product_id":482,"qty":7,"promotion_id":664,"cost":"7494.11"}
{"item_id":328,"order_id":46,"product_id":377,"qty":7,"promotion_id":181,"cost":"1919.93"}
{"item_id":329,"order_id":749,"product_id":962,"qty":5,"promotion_id":457,"cost":"778.81"}
{"item_id":330,"order_id":624,"product_id":492,"qty":3,"promotion_id":529,"cost":"1589.96"}
{"item_id":331,"order_id":136,"product_id":318,"qty":2,"promotion_id":59,"cost":"672.55"}
{"item_id":332,"order_id":685,"product_id":864,"qty":8,"promotion_id":488,"cost":"5156.12"}
{"item_id":333,"order_id":700,"product_id":795,"qty":5,"promotion_id":514,"cost":"9732.51"}
{"item_id":334,"order_id":742,"product_id":591,"qty":8,"promotion_id":720,"cost":"9720.29"}
{"item_id":335,"order_id":788,"product_id":280,"qty":10,"promotion_id":31,"cost":"5263.99"}
{"item_id":336,"order_id":623,"product_id":222,"qty":1,"promotion_id":582,"cost":"7418.38"}
{"item_id":337,"order_id":15,"product_id":511,"qty":2,"promotion_id":374,"cost":"5246.04"}
{"item_id":338,"order_id":94,"product_id":123,"qty":5,"promotion_id":558,"cost":"5048.59"}
{"item_id":339,"order_id":308,"product_id":247,"qty":9,"promotion_id":594,"cost":"5570.99"}
{"item_id":340,"order_id":535,"product_id":714,"qty":10,"promotion_id":688,"cost":"7611.52"}
{"item_id":341,"order_id":756,"product_id":77,"qty":2,"promotion_id":814,"cost":"9829.36"}
{"item_id":342,"order_id":704,"product_id":444,"qty":4,"promotion_id":309,"cost":"3908.90"}
{"item_id":343,"order_id":734,"product_id":628,"qty":8,"promotion_id":304,"cost":"8126.79"}
{"item_id":344,"order_id":900,"product_id":939,"qty":2,"promotion_id":691,"cost":"2452.45"}
{"item_id":345,"order_id":31,"product_id":547,"qty":6,"promotion_id":671,"cost":"8571.25"}
{"item_id":346,"order_id":642,"product_id":306,"qty":4,"promotion_id":448,"cost":"125.06"}
{"item_id":347,"order_id":85,"product_id":585,"qty":7,"promotion_id":248,"cost":"5069.95"}
{"item_id":348,"order_id":478,"product_id":793,"qty":9,"promotion_id":997,"cost":"3413.67"}
{"item_id":349,"order_id":768,"product_id":587,"qty":4,"promotion_id":382,"cost":"257.71"}
{"item_id":350,"order_id":287,"product_id":603,"qty":9,"promotion_id":697,"cost":"9465.32"}
{"item_id":351,"order_id":41,"product_id":685,"qty":9,"promotion_id":268,"cost":"4827.03"}
{"item_id":352,"order_id":211,"product_id":945,"qty":4,"promotion_id":494,"cost":"9417.66"}
{"item_id":353,"order_id":965,"product_id":48,"qty":9,"promotion_id":15,"cost":"6565.82"}
{"item_id":354,"order_id":547,"product_id":213,"qty":7,"promotion_id":820,"cost":"9904.00"}
{"item_id":355,"order_id":694,"product_id":634,"qty":1,"promotion_id":759,"cost":"9902.05"}
{"item_id":356,"order_id":803,"product_id":154,"qty":10,"promotion_id":257,"cost":"4725.41"}
{"item_id":357,"order_id":195,"product_id":597,"qty":7,"promotion_id":675,"cost":"3088.05"}
{"item_id":358,"order_id":660,"product_id":642,"qty":8,"promotion_id":910,"cost":"2441.28"}
{"item_id":359,"order_id":351,"product_id":950,"qty":3,"promotion_id":510,"cost":"7470.41"}
{"item_id":360,"order_id":470,"product_id":636,"qty":6,"promotion_id":944,"cost":"2648.47"}
{"item_id":361,"order_id":440,"product_id":457,"qty":7,"promotion_id":799,"cost":"7414.96"}
{"item_id":362,"order_id":196,"product_id":548,"qty":5,"promotion_id":908,"cost":"4227.54"}
{"item_id":363,"order_id":237,"product_id":631,"qty":5,"promotion_id":553,"cost":"8042.91"}
{"item_id":364,"order_id":604,"product_id":81,"qty":3,"promotion_id":767,"cost":"5113.41"}
{"item_id":365,"order_id":69,"product_id":178,"qty":3,"promotion_id":502,"cost":"1913.60"}
{"item_id":366,"order_id":147,"product_id":846,"qty":2,"promotion_id":37,"cost":"4932.10"}
{"item_id":367,"order_id":689,"product_id":758,"qty":8,"promotion_id":298,"cost":"3760.72"}
{"item_id":368,"order_id":889,"product_id":221,"qty":1,"promotion_id":912,"cost":"9898.80"}
{"item_id":369,"order_id":84,"product_id":266,"qty":10,"promotion_id":698,"cost":"6476.38"}
{"item_id":370,"order_id":753,"product_id":566,"qty":2,"promotion_id":761,"cost":"2662.12"}
{"item_id":371,"order_id":266,"product_id":519,"qty":4,"promotion_id":910,"cost":"8191.94"}
{"item_id":372,"order_id":259,"product_id":481,"qty":2,"promotion_id":971,"cost":"9223.85"}
{"item_id":373,"order_id":139,"product_id":695,"qty":7,"promotion_id":312,"cost":"3868.05"}
{"item_id":374,"order_id":871,"product_id":560,"qty":10,"promotion_id":732,"cost":"8463.69"}
{"item_id":375,"order_id":635,"product_id":878,"qty":10,"promotion_id":844,"cost":"5211.30"}
{"item_id":376,"order_id":655,"product_id":614,"qty":4,"promotion_id":844,"cost":"232.92"}
{"item_id":377,"order_id":661,"product_id":843,"qty":3,"promotion_id":694,"cost":"4504.27"}
{"item_id":378,"order_id":699,"product_id":596,"qty":7,"promotion_id":351,"cost":"7242.78"}
{"item_id":379,"order_id":882,"product_id":77,"qty":9,"promotion_id":700,"cost":"941.20"}
{"item_id":380,"order_id":178,"product_id":106,"qty":1,"promotion_id":824,"cost":"6295.67"}
{"item_id":381,"order_id":737,"product_id":277,"qty":2,"promotion_id":975,"cost":"1461.18"}
{"item_id":382,"order_id":130,"product_id":441,"qty":10,"promotion_id":298,"cost":"4554.83"}
{"item_id":383,"order_id":423,"product_id":512,"qty":5,"promotion_id":234,"cost":"8746.01"}
{"item_id":384,"order_id":699,"product_id":577,"qty":6,"promotion_id":995,"cost":"8604.12"}
{"item_id":385,"order_id":541,"product_id":690,"qty":4,"promotion_id":701,"cost":"4679.83"}
{"item_id":386,"order_id":371,"product_id":347,"qty":2,"promotion_id":269,"cost":"1262.08"}
{"item_id":387,"order_id":462,"product_id":373,"qty":2,"promotion_id":616,"cost":"936.05"}
{"item_id":388,"order_id":519,"product_id":139,"qty":5,"promotion_id":440,"cost":"2906.23"}
{"item_id":389,"order_id":948,"product_id":991,"qty":3,"promotion_id":19,"cost":"3177.40"}
{"item_id":390,"order_id":502,"product_id":253,"qty":2,"promotion_id":831,"cost":"6597.64"}
{"item_id":391,"order_id":148,"product_id":907,"qty":2,"promotion_id":191,"cost":"2719.12"}
{"item_id":392,"order_id":371,"product_id":868,"qty":8,"promotion_id":587,"cost":"6424.81"}
{"item_id":393,"order_id":148,"product_id":497,"qty":1,"promotion_id":283,"cost":"1729.87"}
{"item_id":394,"order_id":239,"product_id":652,"qty":1,"promotion_id":26,"cost":"2315.91"}
{"item_id":395,"order_id":238,"product_id":537,"qty":2,"promotion_id":503,"cost":"7658.74"}
{"item_id":396,"order_id":204,"product_id":182,"qty":8,"promotion_id":24,"cost":"9774.44"}
{"item_id":397,"order_id":64,"product_id":580,"qty":5,"promotion_id":521,"cost":"7381.56"}
{"item_id":398,"order_id":882,"product_id":349,"qty":2,"promotion_id":494,"cost":"6039.50"}
{"item_id":399,"order_id":253,"product_id":630,"qty":10,"promotion_id":82,"cost":"5647.09"}
{"item_id":400,"order_id":314,"product_id":365,"qty":7,"promotion_id":462,"cost":"4377.96"}
{"item_id":401,"order_id":370,"product_id":230,"qty":9,"promotion_id":777,"cost":"5763.75"}
{"item_id":402,"order_id":13,"product_id":782,"qty":6,"promotion_id":249,"cost":"7487.96"}
{"item_id":403,"order_id":714,"product_id":442,"qty":5,"promotion_id":899,"cost":"5396.34"}
{"item_id":404,"order_id":949,"product_id":461,"qty":3,"promotion_id":811,"cost":"2320.61"}
{"item_id":405,"order_id":284,"product_id":981,"qty":9,"promotion_id":356,"cost":"9153.79"}
{"item_id":406,"order_id":255,"product_id":443,"qty":2,"promotion_id":18,"cost":"1101.99"}
{"item_id":407,"order_id":587,"product_id":485,"qty":9,"promotion_id":340,"cost":"6513.87"}
{"item_id":408,"order_id":81,"product_id":706,"qty":6,"promotion_id":501,"cost":"2558.21"}
{"item_id":409,"order_id":911,"product_id":779,"qty":6,"promotion_id":598,"cost":"3403.80"}
{"item_id":410,"order_id":523,"product_id":30,"qty":8,"promotion_id":94,"cost":"968.11"}
{"item_id":411,"order_id":532,"product_id":803,"qty":3,"promotion_id":522,"cost":"7571.72"}
{"item_id":412,"order_id":581,"product_id":402,"qty":1,"promotion_id":336,"cost":"1872.11"}
{"item_id":413,"order_id":598,"product_id":893,"qty":6,"promotion_id":925,"cost":"880.97"}
{"item_id":414,"order_id":280,"product_id":28,"qty":1,"promotion_id":759,"cost":"1572.02"}
{"item_id":415,"order_id":786,"product_id":666,"qty":7,"promotion_id":533,"cost":"4723.67"}
{"item_id":416,"order_id":914,"product_id":304,"qty":5,"promotion_id":918,"cost":"73.30"}
{"item_id":417,"order_id":528,"product_id":163,"qty":5,"promotion_id":328,"cost":"1833.61"}
{"item_id":418,"order_id":590,"product_id":383,"qty":2,"promotion_id":539,"cost":"9166.06"}
{"item_id":419,"order_id":339,"product_id":22,"qty":9,"promotion_id":778,"cost":"7129.39"}
{"item_id":420,"order_id":611,"product_id":514,"qty":3,"promotion_id":981,"cost":"4154.64"}
{"item_id":421,"order_id":979,"product_id":876,"qty":1,"promotion_id":104,"cost":"207.08"}
{"item_id":422,"order_id":705,"product_id":601,"qty":10,"promotion_id":260,"cost":"6372.56"}
{"item_id":423,"order_id":705,"product_id":716,"qty":9,"promotion_id":957,"cost":"3707.39"}
{"item_id":424,"order_id":962,"product_id":407,"qty":5,"promotion_id":493,"cost":"5771.07"}
{"item_id":425,"order_id":656,"product_id":121,"qty":4,"promotion_id":226,"cost":"8423.55"}
{"item_id":426,"order_id":371,"product_id":987,"qty":1,"promotion_id":202,"cost":"9618.94"}
{"item_id":427,"order_id":95,"product_id":239,"qty":10,"promotion_id":888,"cost":"3370.12"}
{"item_id":428,"order_id":17,"product_id":276,"qty":10,"promotion_id":567,"cost":"1386.02"}
{"item_id":429,"order_id":276,"product_id":854,"qty":3,"promotion_id":231,"cost":"6325.52"}
{"item_id":430,"order_id":354,"product_id":550,"qty":2,"promotion_id":822,"cost":"3326.34"}
{"item_id":431,"order_id":539,"product_id":222,"qty":5,"promotion_id":806,"cost":"1256.61"}
{"item_id":432,"order_id":355,"product_id":613,"qty":6,"promotion_id":228,"cost":"275.42"}
{"item_id":433,"order_id":393,"product_id":918,"qty":4,"promotion_id":854,"cost":"7471.16"}
{"item_id":434,"order_id":939,"product_id":796,"qty":9,"promotion_id":74,"cost":"7760.94"}
{"item_id":435,"order_id":955,"product_id":242,"qty":7,"promotion_id":125,"cost":"8721.54"}
{"item_id":436,"order_id":816,"product_id":168,"qty":6,"promotion_id":924,"cost":"2601.01"}
{"item_id":437,"order_id":761,"product_id":500,"qty":7,"promotion_id":881,"cost":"1789.39"}
{"item_id":438,"order_id":991,"product_id":488,"qty":6,"promotion_id":437,"cost":"6677.77"}
{"item_id":439,"order_id":655,"product_id":368,"qty":4,"promotion_id":515,"cost":"7532.06"}
{"item_id":440,"order_id":865,"product_id":936,"qty":10,"promotion_id":662,"cost":"1662.11"}
{"item_id":441,"order_id":615,"product_id":308,"qty":6,"promotion_id":686,"cost":"3362.10"}
{"item_id":442,"order_id":426,"product_id":379,"qty":10,"promotion_id":924,"cost":"2134.39"}
{"item_id":443,"order_id":66,"product_id":478,"qty":4,"promotion_id":699,"cost":"8279.43"}
{"item_id":444,"order_id":872,"product_id":82,"qty":8,"promotion_id":855,"cost":"9005.39"}
{"item_id":445,"order_id":599,"product_id":315,"qty":10,"promotion_id":491,"cost":"6643.22"}
{"item_id":446,"order_id":605,"product_id":772,"qty":8,"promotion_id":311,"cost":"8436.68"}
{"item_id":447,"order_id":436,"product_id":801,"qty":8,"promotion_id":785,"cost":"4617.38"}
{"item_id":448,"order_id":492,"product_id":191,"qty":4,"promotion_id":397,"cost":"3176.92"}
{"item_id":449,"order_id":316,"product_id":576,"qty":10,"promotion_id":994,"cost":"970.44"}
{"item_id":450,"order_id":889,"product_id":758,"qty":4,"promotion_id":359,"cost":"2713.44"}
{"item_id":451,"order_id":24,"product_id":473,"qty":4,"promotion_id":209,"cost":"9091.16"}
{"item_id":452,"order_id":733,"product_id":452,"qty":2,"promotion_id":499,"cost":"3317.89"}
{"item_id":453,"order_id":21,"product_id":22,"qty":7,"promotion_id":852,"cost":"8337.44"}
{"item_id":454,"order_id":204,"product_id":253,"qty":6,"promotion_id":500,"cost":"3169.71"}
{"item_id":455,"order_id":300,"product_id":202,"qty":1,"promotion_id":481,"cost":"8957.22"}
{"item_id":456,"order_id":133,"product_id":928,"qty":9,"promotion_id":941,"cost":"8080.00"}
{"item_id":457,"order_id":363,"product_id":796,"qty":6,"promotion_id":34,"cost":"5996.33"}
{"item_id":458,"order_id":669,"product_id":762,"qty":1,"promotion_id":672,"cost":"4566.00"}
{"item_id":459,"order_id":249,"product_id":558,"qty":1,"promotion_id":85,"cost":"6649.88"}
{"item_id":460,"order_id":408,"product_id":869,"qty":1,"promotion_id":871,"cost":"9676.67"}
{"item_id":461,"order_id":264,"product_id":507,"qty":4,"promotion_id":194,"cost":"5492.59"}
{"item_id":462,"order_id":825,"product_id":512,"qty":4,"promotion_id":792,"cost":"2436.10"}
{"item_id":463,"order_id":56,"product_id":403,"qty":9,"promotion_id":387,"cost":"5248.15"}
{"item_id":464,"order_id":711,"product_id":522,"qty":2,"promotion_id":312,"cost":"388.98"}
{"item_id":465,"order_id":312,"product_id":468,"qty":8,"promotion_id":650,"cost":"2606.58"}
{"item_id":466,"order_id":2,"product_id":591,"qty":5,"promotion_id":718,"cost":"2187.96"}
{"item_id":467,"order_id":63,"product_id":825,"qty":4,"promotion_id":203,"cost":"4693.03"}
{"item_id":468,"order_id":23,"product_id":447,"qty":1,"promotion_id":941,"cost":"8057.08"}
{"item_id":469,"order_id":949,"product_id":521,"qty":7,"promotion_id":39,"cost":"1154.95"}
{"item_id":470,"order_id":670,"product_id":561,"qty":7,"promotion_id":558,"cost":"4851.77"}
{"item_id":471,"order_id":936,"product_id":457,"qty":9,"promotion_id":968,"cost":"6565.81"}
{"item_id":472,"order_id":813,"product_id":125,"qty":3,"promotion_id":338,"cost":"5747.84"}
{"item_id":473,"order_id":643,"product_id":376,"qty":10,"promotion_id":640,"cost":"2089.90"}
{"item_id":474,"order_id":986,"product_id":304,"qty":4,"promotion_id":454,"cost":"6289.05"}
{"item_id":475,"order_id":460,"product_id":221,"qty":8,"promotion_id":253,"cost":"8350.93"}
{"item_id":476,"order_id":825,"product_id":690,"qty":10,"promotion_id":537,"cost":"2698.35"}
{"item_id":477,"order_id":613,"product_id":550,"qty":8,"promotion_id":292,"cost":"9326.11"}
{"item_id":478,"order_id":132,"product_id":830,"qty":10,"promotion_id":477,"cost":"7420.57"}
{"item_id":479,"order_id":905,"product_id":543,"qty":3,"promotion_id":25,"cost":"67.19"}
{"item_id":480,"order_id":115,"product_id":960,"qty":4,"promotion_id":412,"cost":"6663.63"}
{"item_id":481,"order_id":42,"product_id":5,"qty":10,"promotion_id":241,"cost":"7292.22"}
{"item_id":482,"order_id":378,"product_id":999,"qty":1,"promotion_id":253,"cost":"3073.47"}
{"item_id":483,"order_id":176,"product_id":855,"qty":9,"promotion_id":332,"cost":"5417.62"}
{"item_id":484,"order_id":142,"product_id":626,"qty":6,"promotion_id":448,"cost":"8685.06"}
{"item_id":485,"order_id":540,"product_id":641,"qty":5,"promotion_id":869,"cost":"1919.50"}
{"item_id":486,"order_id":350,"product_id":43,"qty":10,"promotion_id":532,"cost":"7898.38"}
{"item_id":487,"order_id":197,"product_id":774,"qty":9,"promotion_id":987,"cost":"794.16"}
{"item_id":488,"order_id":528,"product_id":415,"qty":4,"promotion_id":571,"cost":"646.46"}
{"item_id":489,"order_id":743,"product_id":312,"qty":6,"promotion_id":90,"cost":"646.32"}
{"item_id":490,"order_id":663,"product_id":870,"qty":9,"promotion_id":889,"cost":"440.40"}
{"item_id":491,"order_id":129,"product_id":776,"qty":8,"promotion_id":623,"cost":"3297.62"}
{"item_id":492,"order_id":984,"product_id":874,"qty":3,"promotion_id":883,"cost":"3816.89"}
{"item_id":493,"order_id":198,"product_id":942,"qty":9,"promotion_id":809,"cost":"5242.28"}
{"item_id":494,"order_id":626,"product_id":528,"qty":2,"promotion_id":373,"cost":"333.36"}
{"item_id":495,"order_id":258,"product_id":126,"qty":1,"promotion_id":227,"cost":"3805.48"}
{"item_id":496,"order_id":314,"product_id":422,"qty":9,"promotion_id":417,"cost":"9817.38"}
{"item_id":497,"order_id":106,"product_id":338,"qty":9,"promotion_id":490,"cost":"7667.87"}
{"item_id":498,"order_id":785,"product_id":490,"qty":2,"promotion_id":250,"cost":"9821.02"}
{"item_id":499,"order_id":430,"product_id":78,"qty":7,"promotion_id":999,"cost":"4038.04"}
{"item_id":500,"order_id":606,"product_id":388,"qty":6,"promotion_id":663,"cost":"6306.80"}
{"item_id":501,"order_id":135,"product_id":473,"qty":8,"promotion_id":470,"cost":"4323.53"}
{"item_id":502,"order_id":533,"product_id":939,"qty":8,"promotion_id":754,"cost":"4125.47"}
{"item_id":503,"order_id":323,"product_id":651,"qty":7,"promotion_id":554,"cost":"5404.42"}
{"item_id":504,"order_id":89,"product_id":678,"qty":6,"promotion_id":378,"cost":"4034.19"}
{"item_id":505,"order_id":201,"product_id":431,"qty":9,"promotion_id":149,"cost":"2901.67"}
{"item_id":506,"order_id":507,"product_id":263,"qty":4,"promotion_id":282,"cost":"5741.10"}
{"item_id":507,"order_id":806,"product_id":309,"qty":10,"promotion_id":387,"cost":"8869.78"}
{"item_id":508,"order_id":150,"product_id":308,"qty":6,"promotion_id":730,"cost":"2728.11"}
{"item_id":509,"order_id":639,"product_id":816,"qty":4,"promotion_id":701,"cost":"2366.35"}
{"item_id":510,"order_id":436,"product_id":365,"qty":7,"promotion_id":279,"cost":"4777.56"}
{"item_id":511,"order_id":669,"product_id":649,"qty":7,"promotion_id":746,"cost":"8633.95"}
{"item_id":512,"order_id":926,"product_id":695,"qty":4,"promotion_id":116,"cost":"6760.49"}
{"item_id":513,"order_id":916,"product_id":810,"qty":2,"promotion_id":670,"cost":"8228.54"}
{"item_id":514,"order_id":663,"product_id":979,"qty":9,"promotion_id":513,"cost":"6954.38"}
{"item_id":515,"order_id":813,"product_id":212,"qty":10,"promotion_id":607,"cost":"8014.26"}
{"item_id":516,"order_id":688,"product_id":5,"qty":7,"promotion_id":989,"cost":"3950.90"}
{"item_id":517,"order_id":840,"product_id":932,"qty":8,"promotion_id":452,"cost":"6880.47"}
{"item_id":518,"order_id":713,"product_id":464,"qty":1,"promotion_id":376,"cost":"287.35"}
{"item_id":519,"order_id":295,"product_id":497,"qty":9,"promotion_id":229,"cost":"3119.16"}
{"item_id":520,"order_id":539,"product_id":984,"qty":4,"promotion_id":302,"cost":"1449.86"}
{"item_id":521,"order_id":177,"product_id":945,"qty":7,"promotion_id":519,"cost":"470.83"}
{"item_id":522,"order_id":475,"product_id":11,"qty":9,"promotion_id":862,"cost":"6171.11"}
{"item_id":523,"order_id":298,"product_id":90,"qty":5,"promotion_id":883,"cost":"7872.54"}
{"item_id":524,"order_id":250,"product_id":547,"qty":4,"promotion_id":754,"cost":"3215.16"}
{"item_id":525,"order_id":906,"product_id":986,"qty":8,"promotion_id":590,"cost":"6156.35"}
{"item_id":526,"order_id":720,"product_id":855,"qty":1,"promotion_id":364,"cost":"1511.93"}
{"item_id":527,"order_id":407,"product_id":681,"qty":3,"promotion_id":974,"cost":"8415.86"}
{"item_id":528,"order_id":86,"product_id":365,"qty":8,"promotion_id":872,"cost":"2361.76"}
{"item_id":529,"order_id":239,"product_id":926,"qty":9,"promotion_id":67,"cost":"5017.64"}
{"item_id":530,"order_id":620,"product_id":686,"qty":1,"promotion_id":118,"cost":"5838.03"}
{"item_id":531,"order_id":972,"product_id":870,"qty":7,"promotion_id":307,"cost":"8884.79"}
{"item_id":532,"order_id":960,"product_id":682,"qty":4,"promotion_id":959,"cost":"28.35"}
{"item_id":533,"order_id":336,"product_id":518,"qty":4,"promotion_id":450,"cost":"5242.49"}
{"item_id":534,"order_id":377,"product_id":351,"qty":2,"promotion_id":17,"cost":"3958.61"}
{"item_id":535,"order_id":298,"product_id":204,"qty":6,"promotion_id":580,"cost":"1376.34"}
{"item_id":536,"order_id":144,"product_id":892,"qty":1,"promotion_id":513,"cost":"1002.15"}
{"item_id":537,"order_id":93,"product_id":112,"qty":3,"promotion_id":32,"cost":"6035.02"}
{"item_id":538,"order_id":323,"product_id":852,"qty":9,"promotion_id":573,"cost":"333.72"}
{"item_id":539,"order_id":740,"product_id":301,"qty":3,"promotion_id":600,"cost":"8498.29"}
{"item_id":540,"order_id":642,"product_id":759,"qty":8,"promotion_id":981,"cost":"4852.14"}
{"item_id":541,"order_id":700,"product_id":727,"qty":9,"promotion_id":101,"cost":"4848.82"}
{"item_id":542,"order_id":630,"product_id":284,"qty":3,"promotion_id":316,"cost":"6116.49"}
{"item_id":543,"order_id":854,"product_id":107,"qty":10,"promotion_id":526,"cost":"1868.41"}
{"item_id":544,"order_id":762,"product_id":953,"qty":10,"promotion_id":597,"cost":"8307.28"}
{"item_id":545,"order_id":627,"product_id":811,"qty":1,"promotion_id":777,"cost":"3025.37"}
{"item_id":546,"order_id":920,"product_id":844,"qty":3,"promotion_id":955,"cost":"2211.91"}
{"item_id":547,"order_id":653,"product_id":519,"qty":1,"promotion_id":771,"cost":"5761.48"}
{"item_id":548,"order_id":874,"product_id":123,"qty":6,"promotion_id":318,"cost":"4476.08"}
{"item_id":549,"order_id":499,"product_id":151,"qty":8,"promotion_id":470,"cost":"8645.95"}
{"item_id":550,"order_id":731,"product_id":258,"qty":6,"promotion_id":512,"cost":"7532.04"}
{"item_id":551,"order_id":957,"product_id":538,"qty":5,"promotion_id":857,"cost":"8913.99"}
{"item_id":552,"order_id":932,"product_id":459,"qty":3,"promotion_id":455,"cost":"2137.85"}
{"item_id":553,"order_id":982,"product_id":27,"qty":7,"promotion_id":707,"cost":"7708.23"}
{"item_id":554,"order_id":109,"product_id":366,"qty":1,"promotion_id":383,"cost":"9417.83"}
{"item_id":555,"order_id":720,"product_id":314,"qty":6,"promotion_id":692,"cost":"20.28"}
{"item_id":556,"order_id":93,"product_id":876,"qty":9,"promotion_id":984,"cost":"4937.10"}
{"item_id":557,"order_id":913,"product_id":657,"qty":8,"promotion_id":770,"cost":"2508.57"}
{"item_id":558,"order_id":557,"product_id":394,"qty":4,"promotion_id":684,"cost":"759.62"}
{"item_id":559,"order_id":928,"product_id":516,"qty":4,"promotion_id":21,"cost":"7613.35"}
{"item_id":560,"order_id":834,"product_id":879,"qty":8,"promotion_id":853,"cost":"3581.84"}
{"item_id":561,"order_id":419,"product_id":236,"qty":9,"promotion_id":188,"cost":"3057.15"}
{"item_id":562,"order_id":454,"product_id":994,"qty":7,"promotion_id":131,"cost":"2172.78"}
{"item_id":563,"order_id":865,"product_id":600,"qty":9,"promotion_id":63,"cost":"138.85"}
{"item_id":564,"order_id":321,"product_id":925,"qty":6,"promotion_id":572,"cost":"7714.54"}
{"item_id":565,"order_id":938,"product_id":539,"qty":6,"promotion_id":255,"cost":"5264.38"}
{"item_id":566,"order_id":38,"product_id":771,"qty":7,"promotion_id":517,"cost":"6086.72"}
{"item_id":567,"order_id":338,"product_id":934,"qty":8,"promotion_id":467,"cost":"4185.32"}
{"item_id":568,"order_id":790,"product_id":986,"qty":8,"promotion_id":140,"cost":"5939.51"}
{"item_id":569,"order_id":270,"product_id":744,"qty":7,"promotion_id":263,"cost":"2034.28"}
{"item_id":570,"order_id":294,"product_id":909,"qty":8,"promotion_id":157,"cost":"1813.01"}
{"item_id":571,"order_id":30,"product_id":162,"qty":2,"promotion_id":54,"cost":"1363.04"}
{"item_id":572,"order_id":314,"product_id":821,"qty":7,"promotion_id":159,"cost":"4961.20"}
{"item_id":573,"order_id":209,"product_id":466,"qty":9,"promotion_id":542,"cost":"3363.80"}
{"item_id":574,"order_id":273,"product_id":203,"qty":10,"promotion_id":355,"cost":"8445.39"}
{"item_id":575,"order_id":114,"product_id":334,"qty":3,"promotion_id":992,"cost":"57.47"}
{"item_id":576,"order_id":935,"product_id":614,"qty":9,"promotion_id":923,"cost":"4505.22"}
{"item_id":577,"order_id":578,"product_id":318,"qty":5,"promotion_id":101,"cost":"3884.02"}
{"item_id":578,"order_id":985,"product_id":585,"qty":5,"promotion_id":89,"cost":"7925.66"}
{"item_id":579,"order_id":215,"product_id":980,"qty":2,"promotion_id":826,"cost":"7151.29"}
{"item_id":580,"order_id":659,"product_id":316,"qty":5,"promotion_id":136,"cost":"1117.38"}
{"item_id":581,"order_id":468,"product_id":678,"qty":3,"promotion_id":787,"cost":"4974.10"}
{"item_id":582,"order_id":747,"product_id":245,"qty":4,"promotion_id":298,"cost":"4698.22"}
{"item_id":583,"order_id":743,"product_id":297,"qty":2,"promotion_id":565,"cost":"1960.28"}
{"item_id":584,"order_id":926,"product_id":351,"qty":5,"promotion_id":408,"cost":"8310.46"}
{"item_id":585,"order_id":624,"product_id":710,"qty":7,"promotion_id":724,"cost":"1661.78"}
{"item_id":586,"order_id":397,"product_id":458,"qty":6,"promotion_id":404,"cost":"6968.41"}
{"item_id":587,"order_id":351,"product_id":827,"qty":9,"promotion_id":498,"cost":"6345.86"}
{"item_id":588,"order_id":41,"product_id":290,"qty":5,"promotion_id":173,"cost":"9139.64"}
{"item_id":589,"order_id":757,"product_id":672,"qty":1,"promotion_id":723,"cost":"3590.84"}
{"item_id":590,"order_id":492,"product_id":512,"qty":4,"promotion_id":87,"cost":"2497.20"}
{"item_id":591,"order_id":765,"product_id":935,"qty":9,"promotion_id":200,"cost":"9809.68"}
{"item_id":592,"order_id":862,"product_id":637,"qty":5,"promotion_id":117,"cost":"9046.18"}
{"item_id":593,"order_id":112,"product_id":646,"qty":10,"promotion_id":711,"cost":"4045.01"}
{"item_id":594,"order_id":827,"product_id":706,"qty":3,"promotion_id":958,"cost":"7922.20"}
{"item_id":595,"order_id":428,"product_id":801,"qty":10,"promotion_id":468,"cost":"5715.92"}
{"item_id":596,"order_id":593,"product_id":123,"qty":8,"promotion_id":121,"cost":"3361.28"}
{"item_id":597,"order_id":699,"product_id":442,"qty":5,"promotion_id":973,"cost":"9169.85"}
{"item_id":598,"order_id":699,"product_id":249,"qty":6,"promotion_id":359,"cost":"7878.55"}
{"item_id":599,"order_id":347,"product_id":810,"qty":2,"promotion_id":357,"cost":"9925.97"}
{"item_id":600,"order_id":827,"product_id":672,"qty":4,"promotion_id":414,"cost":"5518.40"}
{"item_id":601,"order_id":794,"product_id":125,"qty":1,"promotion_id":243,"cost":"5671.02"}
{"item_id":602,"order_id":796,"product_id":837,"qty":1,"promotion_id":240,"cost":"6521.91"}
{"item_id":603,"order_id":228,"product_id":492,"qty":8,"promotion_id":941,"cost":"1472.81"}
{"item_id":604,"order_id":150,"product_id":187,"qty":3,"promotion_id":401,"cost":"6812.24"}
{"item_id":605,"order_id":476,"product_id":296,"qty":10,"promotion_id":608,"cost":"1488.56"}
{"item_id":606,"order_id":78,"product_id":156,"qty":6,"promotion_id":240,"cost":"9938.87"}
{"item_id":607,"order_id":48,"product_id":713,"qty":3,"promotion_id":394,"cost":"8459.22"}
{"item_id":608,"order_id":839,"product_id":954,"qty":10,"promotion_id":535,"cost":"3129.29"}
{"item_id":609,"order_id":631,"product_id":952,"qty":7,"promotion_id":788,"cost":"8556.19"}
{"item_id":610,"order_id":455,"product_id":22,"qty":6,"promotion_id":695,"cost":"6710.50"}
{"item_id":611,"order_id":945,"product_id":675,"qty":3,"promotion_id":380,"cost":"5389.42"}
{"item_id":612,"order_id":281,"product_id":166,"qty":6,"promotion_id":477,"cost":"8745.75"}
{"item_id":613,"order_id":953,"product_id":207,"qty":10,"promotion_id":853,"cost":"6776.19"}
{"item_id":614,"order_id":499,"product_id":916,"qty":4,"promotion_id":303,"cost":"8287.45"}
{"item_id":615,"order_id":405,"product_id":455,"qty":1,"promotion_id":861,"cost":"2034.96"}
{"item_id":616,"order_id":225,"product_id":713,"qty":6,"promotion_id":131,"cost":"7818.37"}
{"item_id":617,"order_id":891,"product_id":397,"qty":3,"promotion_id":293,"cost":"3124.17"}
{"item_id":618,"order_id":303,"product_id":69,"qty":1,"promotion_id":776,"cost":"8103.61"}
{"item_id":619,"order_id":462,"product_id":608,"qty":2,"promotion_id":130,"cost":"8249.77"}
{"item_id":620,"order_id":986,"product_id":611,"qty":4,"promotion_id":184,"cost":"5637.91"}
{"item_id":621,"order_id":234,"product_id":257,"qty":10,"promotion_id":498,"cost":"3201.50"}
{"item_id":622,"order_id":836,"product_id":969,"qty":8,"promotion_id":981,"cost":"4824.88"}
{"item_id":623,"order_id":502,"product_id":629,"qty":4,"promotion_id":43,"cost":"8928.07"}
{"item_id":624,"order_id":312,"product_id":109,"qty":4,"promotion_id":668,"cost":"91.56"}
{"item_id":625,"order_id":449,"product_id":569,"qty":1,"promotion_id":491,"cost":"2309.80"}
{"item_id":626,"order_id":544,"product_id":190,"qty":10,"promotion_id":57,"cost":"3131.19"}
{"item_id":627,"order_id":552,"product_id":502,"qty":8,"promotion_id":327,"cost":"6532.43"}
{"item_id":628,"order_id":300,"product_id":876,"qty":4,"promotion_id":886,"cost":"7753.20"}
{"item_id":629,"order_id":871,"product_id":661,"qty":4,"promotion_id":573,"cost":"4338.20"}
{"item_id":630,"order_id":219,"product_id":238,"qty":8,"promotion_id":373,"cost":"1178.89"}
{"item_id":631,"order_id":13,"product_id":185,"qty":5,"promotion_id":862,"cost":"8061.19"}
{"item_id":632,"order_id":962,"product_id":448,"qty":5,"promotion_id":380,"cost":"5450.56"}
{"item_id":633,"order_id":699,"product_id":840,"qty":7,"promotion_id":16,"cost":"5625.18"}
{"item_id":634,"order_id":376,"product_id":204,"qty":9,"promotion_id":156,"cost":"9502.38"}
{"item_id":635,"order_id":228,"product_id":788,"qty":4,"promotion_id":350,"cost":"2046.40"}
{"item_id":636,"order_id":489,"product_id":380,"qty":1,"promotion_id":761,"cost":"1558.73"}
{"item_id":637,"order_id":314,"product_id":880,"qty":3,"promotion_id":370,"cost":"3384.81"}
{"item_id":638,"order_id":52,"product_id":128,"qty":10,"promotion_id":116,"cost":"4278.77"}
{"item_id":639,"order_id":384,"product_id":401,"qty":2,"promotion_id":609,"cost":"5124.26"}
{"item_id":640,"order_id":461,"product_id":564,"qty":5,"promotion_id":973,"cost":"2420.82"}
{"item_id":641,"order_id":909,"product_id":543,"qty":10,"promotion_id":957,"cost":"5345.72"}
{"item_id":642,"order_id":484,"product_id":862,"qty":6,"promotion_id":576,"cost":"1338.52"}
{"item_id":643,"order_id":655,"product_id":409,"qty":5,"promotion_id":764,"cost":"6479.35"}
{"item_id":644,"order_id":761,"product_id":88,"qty":6,"promotion_id":827,"cost":"8154.92"}
{"item_id":645,"order_id":880,"product_id":523,"qty":5,"promotion_id":397,"cost":"3811.27"}
{"item_id":646,"order_id":653,"product_id":562,"qty":2,"promotion_id":235,"cost":"5783.96"}
{"item_id":647,"order_id":132,"product_id":141,"qty":5,"promotion_id":360,"cost":"505.65"}
{"item_id":648,"order_id":814,"product_id":889,"qty":10,"promotion_id":64,"cost":"9851.55"}
{"item_id":649,"order_id":201,"product_id":813,"qty":2,"promotion_id":156,"cost":"1916.97"}
{"item_id":650,"order_id":930,"product_id":92,"qty":4,"promotion_id":660,"cost":"9248.30"}
{"item_id":651,"order_id":25,"product_id":551,"qty":7,"promotion_id":248,"cost":"644.23"}
{"item_id":652,"order_id":140,"product_id":67,"qty":4,"promotion_id":369,"cost":"2782.29"}
{"item_id":653,"order_id":17,"product_id":306,"qty":9,"promotion_id":194,"cost":"6482.32"}
{"item_id":654,"order_id":884,"product_id":313,"qty":8,"promotion_id":866,"cost":"4785.49"}
{"item_id":655,"order_id":242,"product_id":635,"qty":4,"promotion_id":602,"cost":"9303.48"}
{"item_id":656,"order_id":364,"product_id":343,"qty":3,"promotion_id":678,"cost":"3181.28"}
{"item_id":657,"order_id":5,"product_id":359,"qty":7,"promotion_id":105,"cost":"5718.43"}
{"item_id":658,"order_id":763,"product_id":557,"qty":4,"promotion_id":637,"cost":"3685.23"}
{"item_id":659,"order_id":194,"product_id":860,"qty":5,"promotion_id":961,"cost":"2766.64"}
{"item_id":660,"order_id":493,"product_id":54,"qty":1,"promotion_id":609,"cost":"2426.06"}
{"item_id":661,"order_id":696,"product_id":984,"qty":6,"promotion_id":371,"cost":"8669.27"}
{"item_id":662,"order_id":867,"product_id":256,"qty":10,"promotion_id":983,"cost":"8177.39"}
{"item_id":663,"order_id":413,"product_id":15,"qty":4,"promotion_id":131,"cost":"3571.24"}
{"item_id":664,"order_id":161,"product_id":361,"qty":8,"promotion_id":120,"cost":"4354.90"}
{"item_id":665,"order_id":558,"product_id":607,"qty":8,"promotion_id":858,"cost":"5761.27"}
{"item_id":666,"order_id":841,"product_id":549,"qty":10,"promotion_id":633,"cost":"1771.24"}
{"item_id":667,"order_id":605,"product_id":609,"qty":2,"promotion_id":777,"cost":"3173.44"}
{"item_id":668,"order_id":977,"product_id":814,"qty":8,"promotion_id":159,"cost":"4784.90"}
{"item_id":669,"order_id":788,"product_id":319,"qty":10,"promotion_id":90,"cost":"7127.37"}
{"item_id":670,"order_id":999,"product_id":334,"qty":10,"promotion_id":116,"cost":"8944.98"}
{"item_id":671,"order_id":606,"product_id":976,"qty":2,"promotion_id":581,"cost":"4849.82"}
{"item_id":672,"order_id":322,"product_id":141,"qty":2,"promotion_id":951,"cost":"755.84"}
{"item_id":673,"order_id":920,"product_id":399,"qty":10,"promotion_id":103,"cost":"2938.50"}
{"item_id":674,"order_id":251,"product_id":905,"qty":9,"promotion_id":29,"cost":"4050.54"}
{"item_id":675,"order_id":631,"product_id":159,"qty":9,"promotion_id":343,"cost":"9201.34"}
{"item_id":676,"order_id":539,"product_id":600,"qty":9,"promotion_id":354,"cost":"5272.08"}
{"item_id":677,"order_id":975,"product_id":392,"qty":9,"promotion_id":695,"cost":"3180.63"}
{"item_id":678,"order_id":736,"product_id":77,"qty":8,"promotion_id":725,"cost":"7221.38"}
{"item_id":679,"order_id":588,"product_id":317,"qty":2,"promotion_id":672,"cost":"1128.60"}
{"item_id":680,"order_id":233,"product_id":211,"qty":1,"promotion_id":35,"cost":"7429.72"}
{"item_id":681,"order_id":375,"product_id":580,"qty":5,"promotion_id":806,"cost":"8076.01"}
{"item_id":682,"order_id":191,"product_id":866,"qty":8,"promotion_id":210,"cost":"2489.29"}
{"item_id":683,"order_id":186,"product_id":951,"qty":1,"promotion_id":474,"cost":"6172.06"}
{"item_id":684,"order_id":463,"product_id":723,"qty":6,"promotion_id":887,"cost":"2044.17"}
{"item_id":685,"order_id":737,"product_id":244,"qty":1,"promotion_id":747,"cost":"7555.44"}
{"item_id":686,"order_id":633,"product_id":745,"qty":8,"promotion_id":722,"cost":"9334.45"}
{"item_id":687,"order_id":120,"product_id":717,"qty":1,"promotion_id":625,"cost":"7130.47"}
{"item_id":688,"order_id":922,"product_id":266,"qty":7,"promotion_id":261,"cost":"1877.79"}
{"item_id":689,"order_id":274,"product_id":843,"qty":6,"promotion_id":846,"cost":"2784.54"}
{"item_id":690,"order_id":315,"product_id":823,"qty":7,"promotion_id":533,"cost":"6885.98"}
{"item_id":691,"order_id":708,"product_id":541,"qty":2,"promotion_id":864,"cost":"8422.56"}
{"item_id":692,"order_id":675,"product_id":408,"qty":5,"promotion_id":498,"cost":"9764.98"}
{"item_id":693,"order_id":271,"product_id":484,"qty":4,"promotion_id":825,"cost":"9549.75"}
{"item_id":694,"order_id":790,"product_id":530,"qty":2,"promotion_id":543,"cost":"4340.95"}
{"item_id":695,"order_id":42,"product_id":33,"qty":3,"promotion_id":560,"cost":"5487.62"}
{"item_id":696,"order_id":264,"product_id":909,"qty":5,"promotion_id":250,"cost":"3241.07"}
{"item_id":697,"order_id":198,"product_id":777,"qty":3,"promotion_id":648,"cost":"9974.60"}
{"item_id":698,"order_id":71,"product_id":46,"qty":5,"promotion_id":685,"cost":"8136.73"}
{"item_id":699,"order_id":37,"product_id":190,"qty":3,"promotion_id":480,"cost":"2616.88"}
{"item_id":700,"order_id":842,"product_id":586,"qty":1,"promotion_id":965,"cost":"1669.50"}
{"item_id":701,"order_id":930,"product_id":844,"qty":10,"promotion_id":219,"cost":"2347.47"}
{"item_id":702,"order_id":150,"product_id":9,"qty":8,"promotion_id":79,"cost":"1194.45"}
{"item_id":703,"order_id":995,"product_id":653,"qty":8,"promotion_id":96,"cost":"6612.18"}
{"item_id":704,"order_id":868,"product_id":415,"qty":9,"promotion_id":890,"cost":"9306.38"}
{"item_id":705,"order_id":639,"product_id":701,"qty":1,"promotion_id":919,"cost":"7271.24"}
{"item_id":706,"order_id":472,"product_id":943,"qty":10,"promotion_id":795,"cost":"3738.61"}
{"item_id":707,"order_id":816,"product_id":523,"qty":5,"promotion_id":199,"cost":"8028.18"}
{"item_id":708,"order_id":680,"product_id":61,"qty":8,"promotion_id":114,"cost":"2011.76"}
{"item_id":709,"order_id":831,"product_id":886,"qty":5,"promotion_id":909,"cost":"1210.02"}
{"item_id":710,"order_id":656,"product_id":49,"qty":4,"promotion_id":874,"cost":"4533.70"}
{"item_id":711,"order_id":803,"product_id":975,"qty":10,"promotion_id":977,"cost":"5728.74"}
{"item_id":712,"order_id":214,"product_id":117,"qty":7,"promotion_id":129,"cost":"4986.44"}
{"item_id":713,"order_id":546,"product_id":381,"qty":4,"promotion_id":75,"cost":"261.57"}
{"item_id":714,"order_id":968,"product_id":546,"qty":4,"promotion_id":840,"cost":"5469.82"}
{"item_id":715,"order_id":580,"product_id":754,"qty":6,"promotion_id":930,"cost":"6946.49"}
{"item_id":716,"order_id":916,"product_id":211,"qty":8,"promotion_id":152,"cost":"3763.38"}
{"item_id":717,"order_id":237,"product_id":750,"qty":6,"promotion_id":957,"cost":"6524.32"}
{"item_id":718,"order_id":891,"product_id":48,"qty":5,"promotion_id":132,"cost":"2023.01"}
{"item_id":719,"order_id":556,"product_id":331,"qty":5,"promotion_id":139,"cost":"6077.06"}
{"item_id":720,"order_id":113,"product_id":575,"qty":8,"promotion_id":135,"cost":"112.72"}
{"item_id":721,"order_id":515,"product_id":437,"qty":9,"promotion_id":883,"cost":"988.03"}
{"item_id":722,"order_id":799,"product_id":144,"qty":4,"promotion_id":428,"cost":"7002.67"}
{"item_id":723,"order_id":707,"product_id":778,"qty":7,"promotion_id":783,"cost":"7176.99"}
{"item_id":724,"order_id":777,"product_id":705,"qty":8,"promotion_id":969,"cost":"7993.99"}
{"item_id":725,"order_id":159,"product_id":643,"qty":4,"promotion_id":612,"cost":"9884.43"}
{"item_id":726,"order_id":355,"product_id":993,"qty":5,"promotion_id":484,"cost":"9907.32"}
{"item_id":727,"order_id":86,"product_id":791,"qty":1,"promotion_id":373,"cost":"6054.60"}
{"item_id":728,"order_id":366,"product_id":491,"qty":5,"promotion_id":920,"cost":"9547.28"}
{"item_id":729,"order_id":442,"product_id":311,"qty":6,"promotion_id":55,"cost":"2559.59"}
{"item_id":730,"order_id":17,"product_id":393,"qty":6,"promotion_id":715,"cost":"960.13"}
{"item_id":731,"order_id":163,"product_id":421,"qty":3,"promotion_id":969,"cost":"6115.27"}
{"item_id":732,"order_id":440,"product_id":826,"qty":6,"promotion_id":18,"cost":"3951.81"}
{"item_id":733,"order_id":455,"product_id":139,"qty":1,"promotion_id":737,"cost":"1792.79"}
{"item_id":734,"order_id":112,"product_id":785,"qty":3,"promotion_id":442,"cost":"201.24"}
{"item_id":735,"order_id":483,"product_id":501,"qty":2,"promotion_id":577,"cost":"3125.61"}
{"item_id":736,"order_id":590,"product_id":742,"qty":8,"promotion_id":620,"cost":"471.54"}
{"item_id":737,"order_id":88,"product_id":807,"qty":9,"promotion_id":529,"cost":"2757.41"}
{"item_id":738,"order_id":40,"product_id":669,"qty":10,"promotion_id":717,"cost":"8617.71"}
{"item_id":739,"order_id":437,"product_id":759,"qty":6,"promotion_id":450,"cost":"9100.91"}
{"item_id":740,"order_id":103,"product_id":456,"qty":9,"promotion_id":358,"cost":"4287.74"}
{"item_id":741,"order_id":622,"product_id":96,"qty":3,"promotion_id":820,"cost":"7831.98"}
{"item_id":742,"order_id":337,"product_id":664,"qty":3,"promotion_id":390,"cost":"4576.31"}
{"item_id":743,"order_id":357,"product_id":742,"qty":3,"promotion_id":1,"cost":"2442.67"}
{"item_id":744,"order_id":730,"product_id":449,"qty":9,"promotion_id":102,"cost":"4746.12"}
{"item_id":745,"order_id":0,"product_id":709,"qty":6,"promotion_id":829,"cost":"5016.55"}
{"item_id":746,"order_id":292,"product_id":637,"qty":2,"promotion_id":731,"cost":"1251.06"}
{"item_id":747,"order_id":795,"product_id":542,"qty":4,"promotion_id":468,"cost":"7300.59"}
{"item_id":748,"order_id":925,"product_id":635,"qty":10,"promotion_id":821,"cost":"7386.57"}
{"item_id":749,"order_id":185,"product_id":399,"qty":2,"promotion_id":986,"cost":"3523.24"}
{"item_id":750,"order_id":979,"product_id":987,"qty":8,"promotion_id":662,"cost":"3549.84"}
{"item_id":751,"order_id":628,"product_id":9,"qty":4,"promotion_id":624,"cost":"2394.13"}
{"item_id":752,"order_id":602,"product_id":880,"qty":1,"promotion_id":714,"cost":"8495.54"}
{"item_id":753,"order_id":409,"product_id":482,"qty":8,"promotion_id":158,"cost":"4850.31"}
{"item_id":754,"order_id":832,"product_id":800,"qty":3,"promotion_id":136,"cost":"6573.05"}
{"item_id":755,"order_id":613,"product_id":758,"qty":2,"promotion_id":174,"cost":"7392.94"}
{"item_id":756,"order_id":74,"product_id":556,"qty":4,"promotion_id":713,"cost":"490.97"}
{"item_id":757,"order_id":135,"product_id":335,"qty":8,"promotion_id":293,"cost":"5195.30"}
{"item_id":758,"order_id":400,"product_id":280,"qty":4,"promotion_id":814,"cost":"1751.88"}
{"item_id":759,"order_id":596,"product_id":324,"qty":7,"promotion_id":52,"cost":"3241.34"}
{"item_id":760,"order_id":851,"product_id":293,"qty":1,"promotion_id":551,"cost":"1461.97"}
{"item_id":761,"order_id":509,"product_id":782,"qty":8,"promotion_id":450,"cost":"5424.46"}
{"item_id":762,"order_id":201,"product_id":391,"qty":8,"promotion_id":258,"cost":"9371.12"}
{"item_id":763,"order_id":854,"product_id":339,"qty":10,"promotion_id":125,"cost":"228.87"}
{"item_id":764,"order_id":239,"product_id":291,"qty":5,"promotion_id":247,"cost":"117.84"}
{"item_id":765,"order_id":653,"product_id":100,"qty":10,"promotion_id":457,"cost":"4350.40"}
{"item_id":766,"order_id":692,"product_id":318,"qty":1,"promotion_id":558,"cost":"9184.62"}
{"item_id":767,"order_id":528,"product_id":205,"qty":5,"promotion_id":935,"cost":"8678.83"}
{"item_id":768,"order_id":92,"product_id":618,"qty":8,"promotion_id":721,"cost":"1693.57"}
{"item_id":769,"order_id":578,"product_id":905,"qty":10,"promotion_id":812,"cost":"6611.39"}
{"item_id":770,"order_id":277,"product_id":404,"qty":4,"promotion_id":0,"cost":"1102.09"}
{"item_id":771,"order_id":402,"product_id":799,"qty":3,"promotion_id":417,"cost":"9362.10"}
{"item_id":772,"order_id":103,"product_id":386,"qty":5,"promotion_id":613,"cost":"9912.89"}
{"item_id":773,"order_id":442,"product_id":194,"qty":2,"promotion_id":443,"cost":"5673.16"}
{"item_id":774,"order_id":726,"product_id":997,"qty":3,"promotion_id":171,"cost":"9412.79"}
{"item_id":775,"order_id":497,"product_id":54,"qty":6,"promotion_id":856,"cost":"3512.53"}
{"item_id":776,"order_id":652,"product_id":433,"qty":1,"promotion_id":177,"cost":"6175.25"}
{"item_id":777,"order_id":911,"product_id":618,"qty":8,"promotion_id":175,"cost":"7365.39"}
{"item_id":778,"order_id":273,"product_id":74,"qty":9,"promotion_id":691,"cost":"9492.15"}
{"item_id":779,"order_id":827,"product_id":663,"qty":6,"promotion_id":459,"cost":"4636.29"}
{"item_id":780,"order_id":104,"product_id":11,"qty":8,"promotion_id":887,"cost":"2215.68"}
{"item_id":781,"order_id":458,"product_id":747,"qty":4,"promotion_id":555,"cost":"7615.83"}
{"item_id":782,"order_id":851,"product_id":869,"qty":9,"promotion_id":500,"cost":"4282.86"}
{"item_id":783,"order_id":947,"product_id":293,"qty":8,"promotion_id":242,"cost":"5921.27"}
{"item_id":784,"order_id":90,"product_id":489,"qty":1,"promotion_id":921,"cost":"8686.91"}
{"item_id":785,"order_id":893,"product_id":257,"qty":3,"promotion_id":516,"cost":"9768.78"}
{"item_id":786,"order_id":318,"product_id":377,"qty":3,"promotion_id":296,"cost":"1834.20"}
{"item_id":787,"order_id":765,"product_id":266,"qty":4,"promotion_id":45,"cost":"7515.47"}
{"item_id":788,"order_id":671,"product_id":184,"qty":6,"promotion_id":55,"cost":"8830.86"}
{"item_id":789,"order_id":931,"product_id":356,"qty":4,"promotion_id":36,"cost":"8298.66"}
{"item_id":790,"order_id":811,"product_id":703,"qty":8,"promotion_id":988,"cost":"3199.19"}
{"item_id":791,"order_id":598,"product_id":421,"qty":5,"promotion_id":156,"cost":"5170.85"}
{"item_id":792,"order_id":827,"product_id":953,"qty":1,"promotion_id":949,"cost":"4153.93"}
{"item_id":793,"order_id":913,"product_id":722,"qty":5,"promotion_id":122,"cost":"5683.54"}
{"item_id":794,"order_id":692,"product_id":372,"qty":4,"promotion_id":661,"cost":"6666.04"}
{"item_id":795,"order_id":215,"product_id":961,"qty":5,"promotion_id":400,"cost":"9327.12"}
{"item_id":796,"order_id":569,"product_id":904,"qty":3,"promotion_id":819,"cost":"3986.94"}
{"item_id":797,"order_id":186,"product_id":115,"qty":10,"promotion_id":522,"cost":"4512.96"}
{"item_id":798,"order_id":153,"product_id":251,"qty":7,"promotion_id":949,"cost":"2995.06"}
{"item_id":799,"order_id":618,"product_id":651,"qty":6,"promotion_id":759,"cost":"2484.36"}
{"item_id":800,"order_id":279,"product_id":730,"qty":5,"promotion_id":802,"cost":"8253.68"}
{"item_id":801,"order_id":454,"product_id":626,"qty":9,"promotion_id":343,"cost":"5272.33"}
{"item_id":802,"order_id":438,"product_id":705,"qty":5,"promotion_id":426,"cost":"3025.78"}
{"item_id":803,"order_id":216,"product_id":415,"qty":10,"promotion_id":2,"cost":"33.91"}
{"item_id":804,"order_id":201,"product_id":355,"qty":6,"promotion_id":373,"cost":"8728.01"}
{"item_id":805,"order_id":377,"product_id":688,"qty":2,"promotion_id":425,"cost":"6526.03"}
{"item_id":806,"order_id":146,"product_id":615,"qty":10,"promotion_id":508,"cost":"6514.04"}
{"item_id":807,"order_id":468,"product_id":701,"qty":9,"promotion_id":359,"cost":"194.45"}
{"item_id":808,"order_id":1,"product_id":455,"qty":4,"promotion_id":109,"cost":"9564.99"}
{"item_id":809,"order_id":601,"product_id":312,"qty":6,"promotion_id":29,"cost":"4667.90"}
{"item_id":810,"order_id":172,"product_id":428,"qty":9,"promotion_id":881,"cost":"809.84"}
{"item_id":811,"order_id":770,"product_id":18,"qty":7,"promotion_id":800,"cost":"6557.80"}
{"item_id":812,"order_id":430,"product_id":227,"qty":8,"promotion_id":702,"cost":"2400.79"}
{"item_id":813,"order_id":315,"product_id":793,"qty":4,"promotion_id":63,"cost":"2156.80"}
{"item_id":814,"order_id":724,"product_id":744,"qty":2,"promotion_id":389,"cost":"3148.29"}
{"item_id":815,"order_id":227,"product_id":808,"qty":4,"promotion_id":477,"cost":"5277.56"}
{"item_id":816,"order_id":152,"product_id":463,"qty":7,"promotion_id":373,"cost":"7283.71"}
{"item_id":817,"order_id":118,"product_id":545,"qty":3,"promotion_id":559,"cost":"9732.50"}
{"item_id":818,"order_id":270,"product_id":710,"qty":5,"promotion_id":489,"cost":"4616.51"}
{"item_id":819,"order_id":754,"product_id":603,"qty":10,"promotion_id":412,"cost":"2091.14"}
{"item_id":820,"order_id":556,"product_id":983,"qty":8,"promotion_id":970,"cost":"40.07"}
{"item_id":821,"order_id":311,"product_id":671,"qty":6,"promotion_id":581,"cost":"5568.58"}
{"item_id":822,"order_id":346,"product_id":101,"qty":2,"promotion_id":137,"cost":"6930.84"}
{"item_id":823,"order_id":353,"product_id":314,"qty":4,"promotion_id":407,"cost":"1051.63"}
{"item_id":824,"order_id":255,"product_id":337,"qty":8,"promotion_id":337,"cost":"5140.34"}
{"item_id":825,"order_id":469,"product_id":722,"qty":6,"promotion_id":705,"cost":"1005.15"}
{"item_id":826,"order_id":632,"product_id":515,"qty":6,"promotion_id":579,"cost":"8271.90"}
{"item_id":827,"order_id":686,"product_id":973,"qty":2,"promotion_id":300,"cost":"3093.54"}
{"item_id":828,"order_id":740,"product_id":22,"qty":6,"promotion_id":7,"cost":"1363.63"}
{"item_id":829,"order_id":656,"product_id":951,"qty":1,"promotion_id":650,"cost":"8912.64"}
{"item_id":830,"order_id":441,"product_id":317,"qty":10,"promotion_id":753,"cost":"7158.61"}
{"item_id":831,"order_id":867,"product_id":927,"qty":6,"promotion_id":251,"cost":"747.40"}
{"item_id":832,"order_id":169,"product_id":165,"qty":2,"promotion_id":421,"cost":"9059.14"}
{"item_id":833,"order_id":260,"product_id":344,"qty":4,"promotion_id":784,"cost":"9295.43"}
{"item_id":834,"order_id":934,"product_id":543,"qty":3,"promotion_id":35,"cost":"9256.78"}
{"item_id":835,"order_id":312,"product_id":25,"qty":1,"promotion_id":670,"cost":"9412.43"}
{"item_id":836,"order_id":75,"product_id":757,"qty":7,"promotion_id":508,"cost":"8723.85"}
{"item_id":837,"order_id":663,"product_id":189,"qty":10,"promotion_id":513,"cost":"9836.08"}
{"item_id":838,"order_id":903,"product_id":684,"qty":5,"promotion_id":972,"cost":"7187.87"}
{"item_id":839,"order_id":565,"product_id":459,"qty":6,"promotion_id":10,"cost":"5006.13"}
{"item_id":840,"order_id":334,"product_id":909,"qty":9,"promotion_id":943,"cost":"9821.51"}
{"item_id":841,"order_id":33,"product_id":142,"qty":1,"promotion_id":269,"cost":"4351.00"}
{"item_id":842,"order_id":461,"product_id":636,"qty":3,"promotion_id":241,"cost":"7998.77"}
{"item_id":843,"order_id":241,"product_id":440,"qty":1,"promotion_id":852,"cost":"1685.86"}
{"item_id":844,"order_id":78,"product_id":572,"qty":1,"promotion_id":707,"cost":"9143.32"}
{"item_id":845,"order_id":373,"product_id":258,"qty":8,"promotion_id":753,"cost":"6419.37"}
{"item_id":846,"order_id":2,"product_id":169,"qty":3,"promotion_id":540,"cost":"7900.81"}
{"item_id":847,"order_id":996,"product_id":790,"qty":2,"promotion_id":409,"cost":"1753.44"}
{"item_id":848,"order_id":105,"product_id":645,"qty":3,"promotion_id":925,"cost":"9310.96"}
{"item_id":849,"order_id":762,"product_id":226,"qty":6,"promotion_id":961,"cost":"4241.99"}
{"item_id":850,"order_id":672,"product_id":725,"qty":1,"promotion_id":587,"cost":"9275.98"}
{"item_id":851,"order_id":9,"product_id":505,"qty":8,"promotion_id":733,"cost":"6398.39"}
{"item_id":852,"order_id":18,"product_id":85,"qty":9,"promotion_id":755,"cost":"6512.78"}
{"item_id":853,"order_id":656,"product_id":318,"qty":7,"promotion_id":959,"cost":"343.52"}
{"item_id":854,"order_id":667,"product_id":883,"qty":5,"promotion_id":836,"cost":"327.44"}
{"item_id":855,"order_id":585,"product_id":483,"qty":1,"promotion_id":429,"cost":"6917.80"}
{"item_id":856,"order_id":916,"product_id":530,"qty":5,"promotion_id":496,"cost":"453.16"}
{"item_id":857,"order_id":30,"product_id":619,"qty":8,"promotion_id":214,"cost":"269.10"}
{"item_id":858,"order_id":836,"product_id":639,"qty":3,"promotion_id":694,"cost":"9470.98"}
{"item_id":859,"order_id":56,"product_id":469,"qty":7,"promotion_id":234,"cost":"9800.29"}
{"item_id":860,"order_id":772,"product_id":956,"qty":5,"promotion_id":213,"cost":"3966.33"}
{"item_id":861,"order_id":83,"product_id":4,"qty":1,"promotion_id":82,"cost":"3318.81"}
{"item_id":862,"order_id":110,"product_id":219,"qty":6,"promotion_id":357,"cost":"2554.45"}
{"item_id":863,"order_id":937,"product_id":19,"qty":3,"promotion_id":247,"cost":"3129.14"}
{"item_id":864,"order_id":959,"product_id":668,"qty":4,"promotion_id":667,"cost":"8299.66"}
{"item_id":865,"order_id":66,"product_id":812,"qty":1,"promotion_id":514,"cost":"6307.21"}
{"item_id":866,"order_id":350,"product_id":111,"qty":6,"promotion_id":544,"cost":"9932.29"}
{"item_id":867,"order_id":689,"product_id":343,"qty":3,"promotion_id":671,"cost":"7807.22"}
{"item_id":868,"order_id":232,"product_id":899,"qty":7,"promotion_id":868,"cost":"9396.61"}
{"item_id":869,"order_id":541,"product_id":352,"qty":8,"promotion_id":599,"cost":"8387.51"}
{"item_id":870,"order_id":643,"product_id":796,"qty":1,"promotion_id":568,"cost":"4128.81"}
{"item_id":871,"order_id":705,"product_id":60,"qty":9,"promotion_id":500,"cost":"8852.83"}
{"item_id":872,"order_id":464,"product_id":631,"qty":10,"promotion_id":168,"cost":"7956.28"}
{"item_id":873,"order_id":775,"product_id":917,"qty":7,"promotion_id":877,"cost":"2024.28"}
{"item_id":874,"order_id":833,"product_id":157,"qty":5,"promotion_id":329,"cost":"8681.99"}
{"item_id":875,"order_id":391,"product_id":521,"qty":5,"promotion_id":316,"cost":"9598.08"}
{"item_id":876,"order_id":23,"product_id":220,"qty":10,"promotion_id":556,"cost":"5785.01"}
{"item_id":877,"order_id":178,"product_id":714,"qty":7,"promotion_id":437,"cost":"3475.06"}
{"item_id":878,"order_id":890,"product_id":508,"qty":9,"promotion_id":876,"cost":"651.41"}
{"item_id":879,"order_id":95,"product_id":286,"qty":10,"promotion_id":12,"cost":"2947.11"}
{"item_id":880,"order_id":569,"product_id":52,"qty":1,"promotion_id":687,"cost":"3064.65"}
{"item_id":881,"order_id":97,"product_id":208,"qty":8,"promotion_id":814,"cost":"7512.69"}
{"item_id":882,"order_id":832,"product_id":795,"qty":6,"promotion_id":501,"cost":"4396.96"}
{"item_id":883,"order_id":170,"product_id":650,"qty":2,"promotion_id":286,"cost":"357.08"}
{"item_id":884,"order_id":610,"product_id":330,"qty":9,"promotion_id":898,"cost":"2327.61"}
{"item_id":885,"order_id":865,"product_id":884,"qty":1,"promotion_id":945,"cost":"3805.55"}
{"item_id":886,"order_id":215,"product_id":831,"qty":1,"promotion_id":14,"cost":"5270.91"}
{"item_id":887,"order_id":858,"product_id":197,"qty":2,"promotion_id":655,"cost":"6728.43"}
{"item_id":888,"order_id":661,"product_id":287,"qty":8,"promotion_id":6,"cost":"8403.13"}
{"item_id":889,"order_id":759,"product_id":311,"qty":8,"promotion_id":774,"cost":"2141.01"}
{"item_id":890,"order_id":694,"product_id":895,"qty":3,"promotion_id":248,"cost":"3502.61"}
{"item_id":891,"order_id":842,"product_id":27,"qty":8,"promotion_id":113,"cost":"2304.04"}
{"item_id":892,"order_id":250,"product_id":300,"qty":4,"promotion_id":602,"cost":"7411.71"}
{"item_id":893,"order_id":251,"product_id":953,"qty":7,"promotion_id":324,"cost":"7542.01"}
{"item_id":894,"order_id":527,"product_id":386,"qty":3,"promotion_id":641,"cost":"7467.89"}
{"item_id":895,"order_id":675,"product_id":36,"qty":10,"promotion_id":39,"cost":"5868.08"}
{"item_id":896,"order_id":121,"product_id":428,"qty":7,"promotion_id":328,"cost":"604.51"}
{"item_id":897,"order_id":539,"product_id":32,"qty":10,"promotion_id":535,"cost":"564.39"}
{"item_id":898,"order_id":243,"product_id":852,"qty":8,"promotion_id":528,"cost":"2859.95"}
{"item_id":899,"order_id":199,"product_id":982,"qty":6,"promotion_id":39,"cost":"6959.75"}
{"item_id":900,"order_id":133,"product_id":875,"qty":7,"promotion_id":604,"cost":"1383.84"}
{"item_id":901,"order_id":252,"product_id":417,"qty":1,"promotion_id":142,"cost":"553.85"}
{"item_id":902,"order_id":694,"product_id":616,"qty":10,"promotion_id":406,"cost":"1250.95"}
{"item_id":903,"order_id":848,"product_id":575,"qty":2,"promotion_id":627,"cost":"2001.76"}
{"item_id":904,"order_id":150,"product_id":909,"qty":6,"promotion_id":338,"cost":"2706.14"}
{"item_id":905,"order_id":394,"product_id":892,"qty":5,"promotion_id":879,"cost":"8131.50"}
{"item_id":906,"order_id":443,"product_id":728,"qty":2,"promotion_id":843,"cost":"9917.40"}
{"item_id":907,"order_id":826,"product_id":257,"qty":1,"promotion_id":471,"cost":"3569.94"}
{"item_id":908,"order_id":959,"product_id":301,"qty":8,"promotion_id":23,"cost":"4266.22"}
{"item_id":909,"order_id":690,"product_id":689,"qty":3,"promotion_id":311,"cost":"8339.85"}
{"item_id":910,"order_id":421,"product_id":261,"qty":8,"promotion_id":783,"cost":"9798.97"}
{"item_id":911,"order_id":495,"product_id":791,"qty":6,"promotion_id":237,"cost":"469.09"}
{"item_id":912,"order_id":606,"product_id":338,"qty":2,"promotion_id":386,"cost":"4029.76"}
{"item_id":913,"order_id":911,"product_id":140,"qty":3,"promotion_id":890,"cost":"5276.80"}
{"item_id":914,"order_id":500,"product_id":895,"qty":4,"promotion_id":458,"cost":"6969.60"}
{"item_id":915,"order_id":55,"product_id":217,"qty":6,"promotion_id":310,"cost":"4877.37"}
{"item_id":916,"order_id":524,"product_id":964,"qty":8,"promotion_id":609,"cost":"7350.83"}
{"item_id":917,"order_id":928,"product_id":482,"qty":1,"promotion_id":975,"cost":"4227.15"}
{"item_id":918,"order_id":307,"product_id":707,"qty":4,"promotion_id":684,"cost":"4952.86"}
{"item_id":919,"order_id":33,"product_id":807,"qty":2,"promotion_id":737,"cost":"9339.18"}
{"item_id":920,"order_id":139,"product_id":291,"qty":4,"promotion_id":407,"cost":"1610.19"}
{"item_id":921,"order_id":665,"product_id":72,"qty":10,"promotion_id":779,"cost":"1131.27"}
{"item_id":922,"order_id":308,"product_id":245,"qty":10,"promotion_id":918,"cost":"1076.96"}
{"item_id":923,"order_id":555,"product_id":288,"qty":3,"promotion_id":802,"cost":"420.43"}
{"item_id":924,"order_id":92,"product_id":703,"qty":5,"promotion_id":133,"cost":"1182.08"}
{"item_id":925,"order_id":867,"product_id":104,"qty":5,"promotion_id":810,"cost":"6888.10"}
{"item_id":926,"order_id":58,"product_id":182,"qty":9,"promotion_id":720,"cost":"5360.25"}
{"item_id":927,"order_id":485,"product_id":180,"qty":10,"promotion_id":582,"cost":"47.01"}
{"item_id":928,"order_id":667,"product_id":417,"qty":1,"promotion_id":436,"cost":"7867.82"}
{"item_id":929,"order_id":595,"product_id":397,"qty":3,"promotion_id":790,"cost":"1199.20"}
{"item_id":930,"order_id":256,"product_id":130,"qty":10,"promotion_id":675,"cost":"7551.23"}
{"item_id":931,"order_id":519,"product_id":159,"qty":8,"promotion_id":335,"cost":"7646.60"}
{"item_id":932,"order_id":989,"product_id":978,"qty":2,"promotion_id":823,"cost":"5069.54"}
{"item_id":933,"order_id":998,"product_id":784,"qty":6,"promotion_id":552,"cost":"406.25"}
{"item_id":934,"order_id":602,"product_id":980,"qty":3,"promotion_id":267,"cost":"4138.44"}
{"item_id":935,"order_id":709,"product_id":429,"qty":10,"promotion_id":805,"cost":"7418.92"}
{"item_id":936,"order_id":808,"product_id":273,"qty":9,"promotion_id":920,"cost":"5394.42"}
{"item_id":937,"order_id":41,"product_id":849,"qty":10,"promotion_id":615,"cost":"1039.56"}
{"item_id":938,"order_id":226,"product_id":304,"qty":3,"promotion_id":268,"cost":"1993.91"}
{"item_id":939,"order_id":89,"product_id":676,"qty":4,"promotion_id":305,"cost":"7522.15"}
{"item_id":940,"order_id":383,"product_id":850,"qty":1,"promotion_id":562,"cost":"7780.89"}
{"item_id":941,"order_id":463,"product_id":300,"qty":6,"promotion_id":294,"cost":"5968.00"}
{"item_id":942,"order_id":532,"product_id":884,"qty":7,"promotion_id":518,"cost":"944.65"}
{"item_id":943,"order_id":678,"product_id":890,"qty":7,"promotion_id":169,"cost":"5817.75"}
{"item_id":944,"order_id":833,"product_id":279,"qty":10,"promotion_id":757,"cost":"6425.54"}
{"item_id":945,"order_id":790,"product_id":39,"qty":7,"promotion_id":443,"cost":"9305.56"}
{"item_id":946,"order_id":953,"product_id":787,"qty":1,"promotion_id":219,"cost":"2343.82"}
{"item_id":947,"order_id":79,"product_id":430,"qty":3,"promotion_id":483,"cost":"1227.14"}
{"item_id":948,"order_id":675,"product_id":529,"qty":10,"promotion_id":217,"cost":"1446.44"}
{"item_id":949,"order_id":367,"product_id":33,"qty":3,"promotion_id":969,"cost":"840.62"}
{"item_id":950,"order_id":473,"product_id":520,"qty":9,"promotion_id":612,"cost":"8878.30"}
{"item_id":951,"order_id":56,"product_id":539,"qty":2,"promotion_id":387,"cost":"8850.28"}
{"item_id":952,"order_id":599,"product_id":255,"qty":6,"promotion_id":374,"cost":"2312.81"}
{"item_id":953,"order_id":857,"product_id":909,"qty":4,"promotion_id":906,"cost":"7767.72"}
{"item_id":954,"order_id":942,"product_id":63,"qty":5,"promotion_id":264,"cost":"7779.57"}
{"item_id":955,"order_id":253,"product_id":583,"qty":3,"promotion_id":677,"cost":"3320.71"}
{"item_id":956,"order_id":208,"product_id":726,"qty":9,"promotion_id":393,"cost":"9149.16"}
{"item_id":957,"order_id":834,"product_id":610,"qty":2,"promotion_id":461,"cost":"944.21"}
{"item_id":958,"order_id":487,"product_id":622,"qty":8,"promotion_id":221,"cost":"5687.71"}
{"item_id":959,"order_id":36,"product_id":639,"qty":10,"promotion_id":462,"cost":"2867.33"}
{"item_id":960,"order_id":369,"product_id":521,"qty":9,"promotion_id":148,"cost":"3055.50"}
{"item_id":961,"order_id":158,"product_id":834,"qty":10,"promotion_id":259,"cost":"1721.20"}
{"item_id":962,"order_id":290,"product_id":198,"qty":10,"promotion_id":49,"cost":"5863.10"}
{"item_id":963,"order_id":111,"product_id":6,"qty":4,"promotion_id":275,"cost":"1020.36"}
{"item_id":964,"order_id":838,"product_id":17,"qty":9,"promotion_id":345,"cost":"3604.98"}
{"item_id":965,"order_id":630,"product_id":243,"qty":6,"promotion_id":34,"cost":"3504.55"}
{"item_id":966,"order_id":610,"product_id":432,"qty":8,"promotion_id":870,"cost":"4334.18"}
{"item_id":967,"order_id":706,"product_id":199,"qty":6,"promotion_id":661,"cost":"1354.69"}
{"item_id":968,"order_id":706,"product_id":91,"qty":9,"promotion_id":22,"cost":"8743.98"}
{"item_id":969,"order_id":936,"product_id":797,"qty":5,"promotion_id":796,"cost":"6263.36"}
{"item_id":970,"order_id":743,"product_id":186,"qty":7,"promotion_id":80,"cost":"6595.98"}
{"item_id":971,"order_id":824,"product_id":605,"qty":9,"promotion_id":556,"cost":"440.85"}
{"item_id":972,"order_id":781,"product_id":722,"qty":6,"promotion_id":46,"cost":"3030.25"}
{"item_id":973,"order_id":120,"product_id":119,"qty":3,"promotion_id":226,"cost":"3571.18"}
{"item_id":974,"order_id":223,"product_id":570,"qty":4,"promotion_id":484,"cost":"7221.89"}
{"item_id":975,"order_id":76,"product_id":799,"qty":1,"promotion_id":552,"cost":"3944.95"}
{"item_id":976,"order_id":406,"product_id":212,"qty":1,"promotion_id":37,"cost":"6851.77"}
{"item_id":977,"order_id":244,"product_id":417,"qty":8,"promotion_id":918,"cost":"5073.81"}
{"item_id":978,"order_id":625,"product_id":520,"qty":7,"promotion_id":48,"cost":"7412.61"}
{"item_id":979,"order_id":507,"product_id":258,"qty":10,"promotion_id":102,"cost":"453.04"}
{"item_id":980,"order_id":125,"product_id":154,"qty":9,"promotion_id":691,"cost":"3105.83"}
{"item_id":981,"order_id":739,"product_id":389,"qty":5,"promotion_id":964,"cost":"3818.59"}
{"item_id":982,"order_id":19,"product_id":490,"qty":9,"promotion_id":969,"cost":"6292.53"}
{"item_id":983,"order_id":336,"product_id":876,"qty":3,"promotion_id":50,"cost":"261.21"}
{"item_id":984,"order_id":90,"product_id":440,"qty":6,"promotion_id":974,"cost":"8068.43"}
{"item_id":985,"order_id":514,"product_id":650,"qty":4,"promotion_id":261,"cost":"7721.08"}
{"item_id":986,"order_id":895,"product_id":544,"qty":6,"promotion_id":20,"cost":"168.01"}
{"item_id":987,"order_id":153,"product_id":969,"qty":7,"promotion_id":143,"cost":"4989.41"}
{"item_id":988,"order_id":335,"product_id":293,"qty":5,"promotion_id":70,"cost":"1759.63"}
{"item_id":989,"order_id":737,"product_id":628,"qty":10,"promotion_id":462,"cost":"7714.73"}
{"item_id":990,"order_id":381,"product_id":909,"qty":2,"promotion_id":606,"cost":"6678.15"}
{"item_id":991,"order_id":757,"product_id":477,"qty":1,"promotion_id":222,"cost":"4866.41"}
{"item_id":992,"order_id":399,"product_id":69,"qty":3,"promotion_id":115,"cost":"4637.52"}
{"item_id":993,"order_id":473,"product_id":745,"qty":4,"promotion_id":764,"cost":"6032.52"}
{"item_id":994,"order_id":12,"product_id":567,"qty":5,"promotion_id":546,"cost":"8771.98"}
{"item_id":995,"order_id":467,"product_id":159,"qty":5,"promotion_id":110,"cost":"1992.05"}
{"item_id":996,"order_id":517,"product_id":571,"qty":6,"promotion_id":609,"cost":"5812.64"}
{"item_id":997,"order_id":846,"product_id":433,"qty":9,"promotion_id":926,"cost":"1032.64"}
{"item_id":998,"order_id":480,"product_id":525,"qty":1,"promotion_id":684,"cost":"5060.72"}
{"item_id":999,"order_id":154,"product_id":896,"qty":9,"promotion_id":330,"cost":"215.62"}
{"item_id":1000,"order_id":258,"product_id":672,"qty":10,"promotion_id":871,"cost":"4537.33"}